# 3ds Max Wavefront OBJ Exporter v0.97b - (c)2007 guruware
# File Created: 02.04.2021 12:42:11

#
# object Teapot001
#

v  0.700000 1.200000 -0.000000
v  0.645750 1.200000 0.274750
v  0.636741 1.236914 0.270917
v  0.690234 1.236914 -0.000000
v  0.647191 1.249219 0.275363
v  0.701563 1.249219 -0.000000
v  0.668452 1.236914 0.284409
v  0.724609 1.236914 -0.000000
v  0.691875 1.200000 0.294375
v  0.750000 1.200000 -0.000000
v  0.497000 1.200000 0.497000
v  0.490066 1.236914 0.490066
v  0.498109 1.249219 0.498109
v  0.514473 1.236914 0.514473
v  0.532500 1.200000 0.532500
v  0.274750 1.200000 0.645750
v  0.270917 1.236914 0.636741
v  0.275363 1.249219 0.647191
v  0.284409 1.236914 0.668452
v  0.294375 1.200000 0.691875
v  0.000000 1.200000 0.700000
v  0.000000 1.236914 0.690234
v  0.000000 1.249219 0.701563
v  0.000000 1.236914 0.724609
v  0.000000 1.200000 0.750000
v  -0.293734 1.200000 0.645750
v  -0.278926 1.236914 0.636741
v  -0.277736 1.249219 0.647191
v  -0.284706 1.236914 0.668452
v  -0.294375 1.200000 0.691875
v  -0.513875 1.200000 0.497000
v  -0.497185 1.236914 0.490066
v  -0.500219 1.249219 0.498109
v  -0.514736 1.236914 0.514473
v  -0.532500 1.200000 0.532500
v  -0.652078 1.200000 0.274750
v  -0.639411 1.236914 0.270917
v  -0.647982 1.249219 0.275363
v  -0.668551 1.236914 0.284409
v  -0.691875 1.200000 0.294375
v  -0.700000 1.200000 -0.000000
v  -0.690234 1.236914 -0.000000
v  -0.701563 1.249219 -0.000000
v  -0.724609 1.236914 -0.000000
v  -0.750000 1.200000 -0.000000
v  -0.645750 1.200000 -0.274750
v  -0.636741 1.236914 -0.270917
v  -0.647191 1.249219 -0.275363
v  -0.668452 1.236914 -0.284409
v  -0.691875 1.200000 -0.294375
v  -0.497000 1.200000 -0.497000
v  -0.490066 1.236914 -0.490066
v  -0.498109 1.249219 -0.498109
v  -0.514473 1.236914 -0.514473
v  -0.532500 1.200000 -0.532500
v  -0.274750 1.200000 -0.645750
v  -0.270917 1.236914 -0.636741
v  -0.275363 1.249219 -0.647191
v  -0.284409 1.236914 -0.668452
v  -0.294375 1.200000 -0.691875
v  0.000000 1.200000 -0.700000
v  0.000000 1.236914 -0.690234
v  0.000000 1.249219 -0.701563
v  0.000000 1.236914 -0.724609
v  0.000000 1.200000 -0.750000
v  0.274750 1.200000 -0.645750
v  0.270917 1.236914 -0.636741
v  0.275363 1.249219 -0.647191
v  0.284409 1.236914 -0.668452
v  0.294375 1.200000 -0.691875
v  0.497000 1.200000 -0.497000
v  0.490066 1.236914 -0.490066
v  0.498109 1.249219 -0.498109
v  0.514473 1.236914 -0.514473
v  0.532500 1.200000 -0.532500
v  0.645750 1.200000 -0.274750
v  0.636741 1.236914 -0.270917
v  0.647191 1.249219 -0.275363
v  0.668452 1.236914 -0.284409
v  0.691875 1.200000 -0.294375
v  0.776558 1.003711 0.330405
v  0.841797 1.003711 -0.000000
v  0.850430 0.810937 0.361836
v  0.921875 0.810937 -0.000000
v  0.902681 0.625195 0.384067
v  0.978516 0.625195 -0.000000
v  0.922500 0.450000 0.392500
v  1.000000 0.450000 -0.000000
v  0.597676 1.003711 0.597676
v  0.654531 0.810937 0.654531
v  0.694746 0.625195 0.694746
v  0.710000 0.450000 0.710000
v  0.330405 1.003711 0.776558
v  0.361836 0.810937 0.850430
v  0.384067 0.625195 0.902681
v  0.392500 0.450000 0.922500
v  0.000000 1.003711 0.841797
v  0.000000 0.810937 0.921875
v  0.000000 0.625195 0.978516
v  0.000000 0.450000 1.000000
v  -0.330405 1.003711 0.776558
v  -0.361836 0.810937 0.850430
v  -0.384067 0.625195 0.902681
v  -0.392500 0.450000 0.922500
v  -0.597676 1.003711 0.597676
v  -0.654531 0.810937 0.654531
v  -0.694746 0.625195 0.694746
v  -0.710000 0.450000 0.710000
v  -0.776558 1.003711 0.330405
v  -0.850430 0.810937 0.361836
v  -0.902681 0.625195 0.384067
v  -0.922500 0.450000 0.392500
v  -0.841797 1.003711 -0.000000
v  -0.921875 0.810937 -0.000000
v  -0.978516 0.625195 -0.000000
v  -1.000000 0.450000 -0.000000
v  -0.776558 1.003711 -0.330405
v  -0.850430 0.810937 -0.361836
v  -0.902681 0.625195 -0.384067
v  -0.922500 0.450000 -0.392500
v  -0.597676 1.003711 -0.597676
v  -0.654531 0.810937 -0.654531
v  -0.694746 0.625195 -0.694746
v  -0.710000 0.450000 -0.710000
v  -0.330405 1.003711 -0.776558
v  -0.361836 0.810937 -0.850430
v  -0.384067 0.625195 -0.902681
v  -0.392500 0.450000 -0.922500
v  0.000000 1.003711 -0.841797
v  0.000000 0.810937 -0.921875
v  0.000000 0.625195 -0.978516
v  0.000000 0.450000 -1.000000
v  0.330405 1.003711 -0.776558
v  0.361836 0.810937 -0.850430
v  0.384067 0.625195 -0.902681
v  0.392500 0.450000 -0.922500
v  0.597676 1.003711 -0.597676
v  0.654531 0.810937 -0.654531
v  0.694746 0.625195 -0.694746
v  0.710000 0.450000 -0.710000
v  0.776558 1.003711 -0.330405
v  0.850430 0.810937 -0.361836
v  0.902681 0.625195 -0.384067
v  0.922500 0.450000 -0.392500
v  0.886465 0.301758 0.377168
v  0.960938 0.301758 -0.000000
v  0.807187 0.192187 0.343437
v  0.875000 0.192188 -0.000000
v  0.727910 0.117773 0.309707
v  0.789063 0.117773 -0.000000
v  0.691875 0.075000 0.294375
v  0.750000 0.075000 -0.000000
v  0.682266 0.301758 0.682266
v  0.621250 0.192188 0.621250
v  0.560234 0.117773 0.560234
v  0.532500 0.075000 0.532500
v  0.377168 0.301758 0.886465
v  0.343437 0.192188 0.807187
v  0.309707 0.117773 0.727910
v  0.294375 0.075000 0.691875
v  0.000000 0.301758 0.960938
v  0.000000 0.192188 0.875000
v  0.000000 0.117773 0.789063
v  0.000000 0.075000 0.750000
v  -0.377168 0.301758 0.886465
v  -0.343437 0.192187 0.807187
v  -0.309707 0.117773 0.727910
v  -0.294375 0.075000 0.691875
v  -0.682266 0.301758 0.682266
v  -0.621250 0.192188 0.621250
v  -0.560234 0.117773 0.560234
v  -0.532500 0.075000 0.532500
v  -0.886465 0.301758 0.377168
v  -0.807187 0.192188 0.343437
v  -0.727910 0.117773 0.309707
v  -0.691875 0.075000 0.294375
v  -0.960938 0.301758 -0.000000
v  -0.875000 0.192188 -0.000000
v  -0.789063 0.117773 -0.000000
v  -0.750000 0.075000 -0.000000
v  -0.886465 0.301758 -0.377168
v  -0.807187 0.192187 -0.343437
v  -0.727910 0.117773 -0.309707
v  -0.691875 0.075000 -0.294375
v  -0.682266 0.301758 -0.682266
v  -0.621250 0.192188 -0.621250
v  -0.560234 0.117773 -0.560234
v  -0.532500 0.075000 -0.532500
v  -0.377168 0.301758 -0.886465
v  -0.343437 0.192188 -0.807187
v  -0.309707 0.117773 -0.727910
v  -0.294375 0.075000 -0.691875
v  0.000000 0.301758 -0.960938
v  0.000000 0.192188 -0.875000
v  0.000000 0.117773 -0.789063
v  0.000000 0.075000 -0.750000
v  0.377168 0.301758 -0.886465
v  0.343437 0.192187 -0.807187
v  0.309707 0.117773 -0.727910
v  0.294375 0.075000 -0.691875
v  0.682266 0.301758 -0.682266
v  0.621250 0.192188 -0.621250
v  0.560234 0.117773 -0.560234
v  0.532500 0.075000 -0.532500
v  0.886465 0.301758 -0.377168
v  0.807187 0.192188 -0.343437
v  0.727910 0.117773 -0.309707
v  0.691875 0.075000 -0.294375
v  0.676200 0.047461 0.287706
v  0.733008 0.047461 -0.000000
v  0.592418 0.023438 0.252059
v  0.642187 0.023438 -0.000000
v  0.385396 0.006445 0.163976
v  0.417773 0.006445 -0.000000
v  0.000000 0.000000 -0.000000
v  0.520436 0.047461 0.520436
v  0.455953 0.023438 0.455953
v  0.296619 0.006445 0.296619
v  0.287706 0.047461 0.676200
v  0.252059 0.023438 0.592418
v  0.163976 0.006445 0.385396
v  0.000000 0.047461 0.733008
v  0.000000 0.023438 0.642187
v  0.000000 0.006445 0.417773
v  -0.287706 0.047461 0.676200
v  -0.252059 0.023438 0.592418
v  -0.163976 0.006445 0.385396
v  -0.520436 0.047461 0.520436
v  -0.455953 0.023438 0.455953
v  -0.296619 0.006445 0.296619
v  -0.676200 0.047461 0.287706
v  -0.592418 0.023438 0.252059
v  -0.385396 0.006445 0.163976
v  -0.733008 0.047461 -0.000000
v  -0.642187 0.023438 -0.000000
v  -0.417773 0.006445 -0.000000
v  -0.676200 0.047461 -0.287706
v  -0.592418 0.023438 -0.252059
v  -0.385396 0.006445 -0.163976
v  -0.520436 0.047461 -0.520436
v  -0.455953 0.023438 -0.455953
v  -0.296619 0.006445 -0.296619
v  -0.287706 0.047461 -0.676200
v  -0.252059 0.023438 -0.592418
v  -0.163976 0.006445 -0.385396
v  0.000000 0.047461 -0.733008
v  0.000000 0.023438 -0.642187
v  0.000000 0.006445 -0.417773
v  0.287706 0.047461 -0.676200
v  0.252059 0.023438 -0.592418
v  0.163976 0.006445 -0.385396
v  0.520436 0.047461 -0.520436
v  0.455953 0.023438 -0.455953
v  0.296619 0.006445 -0.296619
v  0.676200 0.047461 -0.287706
v  0.592418 0.023438 -0.252059
v  0.385396 0.006445 -0.163976
v  -0.800000 1.012500 -0.000000
v  -0.792188 1.030078 0.084375
v  -1.040552 1.028046 0.084375
v  -1.033594 1.010742 -0.000000
v  -1.222852 1.013818 0.084375
v  -1.206250 0.998438 -0.000000
v  -1.335132 0.975201 0.084375
v  -1.313281 0.965039 -0.000000
v  -1.373438 0.900000 0.084375
v  -1.350000 0.900000 -0.000000
v  -0.775000 1.068750 0.112500
v  -1.055859 1.066113 0.112500
v  -1.259375 1.047656 0.112500
v  -1.383203 0.997559 0.112500
v  -1.425000 0.900000 0.112500
v  -0.757813 1.107422 0.084375
v  -1.071167 1.104181 0.084375
v  -1.295898 1.081494 0.084375
v  -1.431274 1.019916 0.084375
v  -1.476563 0.900000 0.084375
v  -0.750000 1.125000 -0.000000
v  -1.078125 1.121484 -0.000000
v  -1.312500 1.096875 -0.000000
v  -1.453125 1.030078 -0.000000
v  -1.500000 0.900000 -0.000000
v  -0.757812 1.107422 -0.084375
v  -1.071167 1.104181 -0.084375
v  -1.295898 1.081494 -0.084375
v  -1.431274 1.019916 -0.084375
v  -1.476562 0.900000 -0.084375
v  -0.775000 1.068750 -0.112500
v  -1.055859 1.066113 -0.112500
v  -1.259375 1.047656 -0.112500
v  -1.383203 0.997559 -0.112500
v  -1.425000 0.900000 -0.112500
v  -0.792188 1.030078 -0.084375
v  -1.040552 1.028046 -0.084375
v  -1.222852 1.013818 -0.084375
v  -1.335132 0.975201 -0.084375
v  -1.373438 0.900000 -0.084375
v  -1.351770 0.788205 0.084375
v  -1.330469 0.798047 -0.000000
v  -1.283887 0.659985 0.084375
v  -1.268750 0.675000 -0.000000
v  -1.165466 0.533414 0.084375
v  -1.160156 0.551953 -0.000000
v  -0.992188 0.426562 0.084375
v  -1.398633 0.766553 0.112500
v  -1.317188 0.626953 0.112500
v  -1.177148 0.492627 0.112500
v  -0.975000 0.375000 0.112500
v  -1.445496 0.744900 0.084375
v  -1.350488 0.593921 0.084375
v  -1.188831 0.451840 0.084375
v  -0.957812 0.323438 0.084375
v  -1.466797 0.735059 -0.000000
v  -1.365625 0.578906 -0.000000
v  -1.194141 0.433301 -0.000000
v  -0.950000 0.300000 -0.000000
v  -1.445495 0.744900 -0.084375
v  -1.350488 0.593921 -0.084375
v  -1.188831 0.451840 -0.084375
v  -0.957812 0.323438 -0.084375
v  -1.398633 0.766553 -0.112500
v  -1.317188 0.626953 -0.112500
v  -1.177148 0.492627 -0.112500
v  -0.975000 0.375000 -0.112500
v  -1.351770 0.788205 -0.084375
v  -1.283887 0.659985 -0.084375
v  -1.165466 0.533414 -0.084375
v  -0.992188 0.426562 -0.084375
v  0.850000 0.712500 -0.000000
v  0.850000 0.648047 0.185625
v  1.108154 0.719788 0.167607
v  1.089844 0.767578 -0.000000
v  1.217187 0.872168 0.127969
v  1.193750 0.900000 -0.000000
v  1.279346 1.050476 0.088330
v  1.250781 1.060547 -0.000000
v  1.396875 1.200000 0.070313
v  1.350000 1.200000 -0.000000
v  0.850000 0.506250 0.247500
v  1.148437 0.614648 0.223477
v  1.268750 0.810938 0.170625
v  1.342187 1.028320 0.117773
v  1.500000 1.200000 0.093750
v  0.850000 0.364453 0.185625
v  1.188721 0.509509 0.167607
v  1.320312 0.749707 0.127969
v  1.405029 1.006165 0.088330
v  1.603125 1.200000 0.070313
v  0.850000 0.300000 -0.000000
v  1.207031 0.461719 -0.000000
v  1.343750 0.721875 -0.000000
v  1.433594 0.996094 -0.000000
v  1.650000 1.200000 -0.000000
v  0.850000 0.364453 -0.185625
v  1.188721 0.509509 -0.167607
v  1.320312 0.749707 -0.127969
v  1.405029 1.006165 -0.088330
v  1.603125 1.200000 -0.070313
v  0.850000 0.506250 -0.247500
v  1.148437 0.614648 -0.223477
v  1.268750 0.810938 -0.170625
v  1.342187 1.028320 -0.117773
v  1.500000 1.200000 -0.093750
v  0.850000 0.648047 -0.185625
v  1.108154 0.719788 -0.167607
v  1.217187 0.872168 -0.127969
v  1.279346 1.050476 -0.088330
v  1.396875 1.200000 -0.070313
v  1.436139 1.222124 0.065918
v  1.385938 1.221094 -0.000000
v  1.459619 1.229773 0.056250
v  1.412500 1.228125 -0.000000
v  1.460321 1.222536 0.046582
v  1.420313 1.221094 -0.000000
v  1.431250 1.200000 0.042188
v  1.400000 1.200000 -0.000000
v  1.546582 1.224390 0.087891
v  1.563281 1.233398 0.075000
v  1.548340 1.225708 0.062109
v  1.500000 1.200000 0.056250
v  1.657025 1.226656 0.065918
v  1.666944 1.237024 0.056250
v  1.636359 1.228880 0.046582
v  1.568750 1.200000 0.042188
v  1.707227 1.227686 -0.000000
v  1.714063 1.238672 -0.000000
v  1.676367 1.230322 -0.000000
v  1.600000 1.200000 -0.000000
v  1.657025 1.226656 -0.065918
v  1.666944 1.237024 -0.056250
v  1.636359 1.228880 -0.046582
v  1.568750 1.200000 -0.042188
v  1.546582 1.224390 -0.087891
v  1.563281 1.233398 -0.075000
v  1.548340 1.225708 -0.062109
v  1.500000 1.200000 -0.056250
v  1.436139 1.222124 -0.065918
v  1.459619 1.229773 -0.056250
v  1.460321 1.222536 -0.046582
v  1.431250 1.200000 -0.042188
v  0.000000 1.575000 -0.000000
v  0.157173 1.550391 0.067026
v  0.170313 1.550391 -0.000000
v  0.149959 1.490625 0.063939
v  0.162500 1.490625 -0.000000
v  0.090828 1.416797 0.038696
v  0.098438 1.416797 -0.000000
v  0.092250 1.350000 0.039250
v  0.100000 1.350000 -0.000000
v  0.121080 1.550391 0.121080
v  0.115516 1.490625 0.115516
v  0.069943 1.416797 0.069943
v  0.071000 1.350000 0.071000
v  0.067026 1.550391 0.157173
v  0.063939 1.490625 0.149959
v  0.038696 1.416797 0.090828
v  0.039250 1.350000 0.092250
v  0.000000 1.550391 0.170313
v  0.000000 1.490625 0.162500
v  0.000000 1.416797 0.098438
v  0.000000 1.350000 0.100000
v  -0.067026 1.550391 0.157173
v  -0.063939 1.490625 0.149959
v  -0.038696 1.416797 0.090828
v  -0.039250 1.350000 0.092250
v  -0.121080 1.550391 0.121080
v  -0.115516 1.490625 0.115516
v  -0.069943 1.416797 0.069943
v  -0.071000 1.350000 0.071000
v  -0.157173 1.550391 0.067026
v  -0.149959 1.490625 0.063939
v  -0.090828 1.416797 0.038696
v  -0.092250 1.350000 0.039250
v  -0.170313 1.550391 -0.000000
v  -0.162500 1.490625 -0.000000
v  -0.098438 1.416797 -0.000000
v  -0.100000 1.350000 -0.000000
v  -0.157173 1.550391 -0.067026
v  -0.149959 1.490625 -0.063939
v  -0.090828 1.416797 -0.038696
v  -0.092250 1.350000 -0.039250
v  -0.121080 1.550391 -0.121080
v  -0.115516 1.490625 -0.115516
v  -0.069943 1.416797 -0.069943
v  -0.071000 1.350000 -0.071000
v  -0.067026 1.550391 -0.157173
v  -0.063939 1.490625 -0.149959
v  -0.038696 1.416797 -0.090828
v  -0.039250 1.350000 -0.092250
v  0.000000 1.550391 -0.170313
v  0.000000 1.490625 -0.162500
v  0.000000 1.416797 -0.098438
v  0.000000 1.350000 -0.100000
v  0.067026 1.550391 -0.157173
v  0.063939 1.490625 -0.149959
v  0.038696 1.416797 -0.090828
v  0.039250 1.350000 -0.092250
v  0.121080 1.550391 -0.121080
v  0.115516 1.490625 -0.115516
v  0.069943 1.416797 -0.069943
v  0.071000 1.350000 -0.071000
v  0.157173 1.550391 -0.067026
v  0.149959 1.490625 -0.063939
v  0.090828 1.416797 -0.038696
v  0.092250 1.350000 -0.039250
v  0.210445 1.305469 0.089539
v  0.228125 1.305469 -0.000000
v  0.380531 1.275000 0.161906
v  0.412500 1.275000 -0.000000
v  0.533320 1.244531 0.226914
v  0.578125 1.244531 -0.000000
v  0.599625 1.200000 0.255125
v  0.650000 1.200000 -0.000000
v  0.161969 1.305469 0.161969
v  0.292875 1.275000 0.292875
v  0.410469 1.244531 0.410469
v  0.461500 1.200000 0.461500
v  0.089539 1.305469 0.210445
v  0.161906 1.275000 0.380531
v  0.226914 1.244531 0.533320
v  0.255125 1.200000 0.599625
v  0.000000 1.305469 0.228125
v  0.000000 1.275000 0.412500
v  0.000000 1.244531 0.578125
v  0.000000 1.200000 0.650000
v  -0.089539 1.305469 0.210445
v  -0.161906 1.275000 0.380531
v  -0.226914 1.244531 0.533320
v  -0.255125 1.200000 0.599625
v  -0.161969 1.305469 0.161969
v  -0.292875 1.275000 0.292875
v  -0.410469 1.244531 0.410469
v  -0.461500 1.200000 0.461500
v  -0.210445 1.305469 0.089539
v  -0.380531 1.275000 0.161906
v  -0.533320 1.244531 0.226914
v  -0.599625 1.200000 0.255125
v  -0.228125 1.305469 -0.000000
v  -0.412500 1.275000 -0.000000
v  -0.578125 1.244531 -0.000000
v  -0.650000 1.200000 -0.000000
v  -0.210445 1.305469 -0.089539
v  -0.380531 1.275000 -0.161906
v  -0.533320 1.244531 -0.226914
v  -0.599625 1.200000 -0.255125
v  -0.161969 1.305469 -0.161969
v  -0.292875 1.275000 -0.292875
v  -0.410469 1.244531 -0.410469
v  -0.461500 1.200000 -0.461500
v  -0.089539 1.305469 -0.210445
v  -0.161906 1.275000 -0.380531
v  -0.226914 1.244531 -0.533320
v  -0.255125 1.200000 -0.599625
v  0.000000 1.305469 -0.228125
v  0.000000 1.275000 -0.412500
v  0.000000 1.244531 -0.578125
v  0.000000 1.200000 -0.650000
v  0.089539 1.305469 -0.210445
v  0.161906 1.275000 -0.380531
v  0.226914 1.244531 -0.533320
v  0.255125 1.200000 -0.599625
v  0.161969 1.305469 -0.161969
v  0.292875 1.275000 -0.292875
v  0.410469 1.244531 -0.410469
v  0.461500 1.200000 -0.461500
v  0.210445 1.305469 -0.089539
v  0.380531 1.275000 -0.161906
v  0.533320 1.244531 -0.226914
v  0.599625 1.200000 -0.255125
# 529 vertices

vn -0.966742 -0.255752 -0.000000
vn -0.893014 -0.256345 -0.369882
vn -0.893437 0.255996 -0.369102
vn -0.966824 0.255444 -0.000000
vn -0.083880 0.995843 -0.035508
vn -0.092053 0.995754 -0.000000
vn 0.629722 0.731862 0.260438
vn 0.682049 0.731307 -0.000000
vn 0.803725 0.493369 0.332584
vn 0.870301 0.492520 0.000000
vn -0.683407 -0.256731 -0.683407
vn -0.683531 0.256068 -0.683531
vn -0.064926 0.995776 -0.064926
vn 0.481397 0.732471 0.481397
vn 0.614804 0.493997 0.614804
vn -0.369882 -0.256345 -0.893014
vn -0.369102 0.255996 -0.893437
vn -0.035508 0.995843 -0.083880
vn 0.260439 0.731861 0.629723
vn 0.332584 0.493370 0.803725
vn -0.002848 -0.257863 -0.966177
vn -0.001923 0.254737 -0.967008
vn -0.000266 0.995734 -0.092271
vn 0.000024 0.731296 0.682060
vn -0.000000 0.492520 0.870301
vn 0.379058 -0.359300 -0.852771
vn 0.377110 0.149084 -0.914091
vn 0.027504 0.992081 -0.122555
vn -0.261009 0.726763 0.635365
vn -0.332485 0.492546 0.804271
vn 0.663547 -0.410792 -0.625264
vn 0.712664 0.073725 -0.697621
vn 0.099727 0.987509 -0.121983
vn -0.487319 0.723756 0.488567
vn -0.615242 0.492601 0.615484
vn 0.880028 -0.332907 -0.338709
vn 0.917276 0.167113 -0.361493
vn 0.113586 0.992365 -0.048071
vn -0.634149 0.727509 0.261888
vn -0.804126 0.492635 0.332705
vn 0.966690 -0.255738 0.010454
vn 0.967442 0.252963 0.008103
vn 0.093438 0.995624 0.001281
vn -0.682166 0.731197 -0.000343
vn -0.870322 0.492483 -0.000054
vn 0.893014 -0.256345 0.369882
vn 0.893437 0.255996 0.369102
vn 0.083880 0.995843 0.035508
vn -0.629722 0.731862 -0.260438
vn -0.803725 0.493369 -0.332584
vn 0.683407 -0.256731 0.683407
vn 0.683531 0.256068 0.683531
vn 0.064926 0.995776 0.064926
vn -0.481397 0.732471 -0.481397
vn -0.614804 0.493997 -0.614804
vn 0.369882 -0.256345 0.893014
vn 0.369102 0.255996 0.893437
vn 0.035508 0.995843 0.083880
vn -0.260439 0.731861 -0.629723
vn -0.332584 0.493370 -0.803725
vn -0.000000 -0.255752 0.966742
vn -0.000000 0.255444 0.966824
vn -0.000000 0.995754 0.092053
vn -0.000000 0.731307 -0.682049
vn 0.000000 0.492520 -0.870301
vn -0.369882 -0.256345 0.893014
vn -0.369102 0.255996 0.893437
vn -0.035508 0.995843 0.083880
vn 0.260438 0.731862 -0.629722
vn 0.332584 0.493369 -0.803725
vn -0.683407 -0.256731 0.683407
vn -0.683531 0.256068 0.683531
vn -0.064926 0.995776 0.064926
vn 0.481397 0.732471 -0.481397
vn 0.614804 0.493997 -0.614804
vn -0.893014 -0.256345 0.369882
vn -0.893437 0.255996 0.369102
vn -0.083880 0.995843 0.035508
vn 0.629723 0.731861 -0.260439
vn 0.803725 0.493370 -0.332584
vn 0.845439 0.403545 0.349835
vn 0.915321 0.402725 0.000000
vn 0.869996 0.336858 0.360046
vn 0.941808 0.336151 0.000000
vn 0.904193 0.205791 0.374280
vn 0.978690 0.205342 -0.000000
vn 0.921879 -0.066370 0.381752
vn 0.997804 -0.066240 0.000000
vn 0.646802 0.404096 0.646802
vn 0.665655 0.337351 0.665655
vn 0.691923 0.206120 0.691923
vn 0.705543 -0.066480 0.705543
vn 0.349835 0.403545 0.845439
vn 0.360047 0.336858 0.869996
vn 0.374280 0.205791 0.904193
vn 0.381752 -0.066370 0.921879
vn -0.000000 0.402725 0.915321
vn -0.000000 0.336151 0.941808
vn 0.000000 0.205342 0.978690
vn -0.000000 -0.066240 0.997804
vn -0.349835 0.403545 0.845439
vn -0.360046 0.336858 0.869996
vn -0.374280 0.205791 0.904193
vn -0.381752 -0.066370 0.921879
vn -0.646802 0.404096 0.646802
vn -0.665655 0.337351 0.665655
vn -0.691923 0.206120 0.691923
vn -0.705543 -0.066480 0.705543
vn -0.845439 0.403545 0.349835
vn -0.869996 0.336858 0.360047
vn -0.904193 0.205791 0.374280
vn -0.921879 -0.066370 0.381752
vn -0.915321 0.402725 -0.000000
vn -0.941808 0.336151 -0.000000
vn -0.978690 0.205342 0.000000
vn -0.997804 -0.066240 -0.000000
vn -0.845439 0.403545 -0.349835
vn -0.869996 0.336858 -0.360046
vn -0.904193 0.205791 -0.374280
vn -0.921879 -0.066370 -0.381752
vn -0.646802 0.404096 -0.646802
vn -0.665655 0.337351 -0.665655
vn -0.691923 0.206120 -0.691923
vn -0.705543 -0.066480 -0.705543
vn -0.349835 0.403545 -0.845439
vn -0.360047 0.336858 -0.869996
vn -0.374280 0.205791 -0.904193
vn -0.381752 -0.066370 -0.921879
vn 0.000000 0.402725 -0.915321
vn 0.000000 0.336151 -0.941808
vn -0.000000 0.205342 -0.978690
vn 0.000000 -0.066240 -0.997804
vn 0.349835 0.403545 -0.845439
vn 0.360046 0.336858 -0.869996
vn 0.374280 0.205791 -0.904193
vn 0.381752 -0.066370 -0.921879
vn 0.646802 0.404096 -0.646802
vn 0.665655 0.337351 -0.665655
vn 0.691923 0.206120 -0.691923
vn 0.705543 -0.066480 -0.705543
vn 0.845439 0.403545 -0.349835
vn 0.869996 0.336858 -0.360047
vn 0.904193 0.205791 -0.374280
vn 0.921879 -0.066370 -0.381752
vn 0.831437 -0.436180 0.344179
vn 0.900182 -0.435513 0.000000
vn 0.673512 -0.684665 0.278594
vn 0.729611 -0.683863 -0.000000
vn 0.640399 -0.720924 0.264874
vn 0.693951 -0.720022 -0.000000
vn 0.732949 -0.608996 0.303166
vn 0.793950 -0.607984 0.000000
vn 0.636092 -0.436777 0.636092
vn 0.514965 -0.685289 0.514965
vn 0.489651 -0.721446 0.489651
vn 0.560555 -0.609554 0.560555
vn 0.344179 -0.436180 0.831437
vn 0.278594 -0.684665 0.673512
vn 0.264874 -0.720924 0.640399
vn 0.303167 -0.608996 0.732949
vn -0.000000 -0.435513 0.900182
vn 0.000000 -0.683863 0.729611
vn 0.000000 -0.720022 0.693951
vn -0.000000 -0.607984 0.793950
vn -0.344179 -0.436180 0.831437
vn -0.278594 -0.684665 0.673512
vn -0.264874 -0.720924 0.640399
vn -0.303166 -0.608996 0.732949
vn -0.636092 -0.436777 0.636092
vn -0.514965 -0.685289 0.514965
vn -0.489651 -0.721446 0.489651
vn -0.560555 -0.609554 0.560555
vn -0.831437 -0.436180 0.344179
vn -0.673512 -0.684665 0.278594
vn -0.640399 -0.720924 0.264874
vn -0.732949 -0.608996 0.303167
vn -0.900182 -0.435513 -0.000000
vn -0.729611 -0.683863 0.000000
vn -0.693951 -0.720022 0.000000
vn -0.793950 -0.607984 -0.000000
vn -0.831437 -0.436180 -0.344179
vn -0.673512 -0.684665 -0.278594
vn -0.640399 -0.720924 -0.264874
vn -0.732949 -0.608996 -0.303166
vn -0.636092 -0.436777 -0.636092
vn -0.514965 -0.685289 -0.514965
vn -0.489651 -0.721446 -0.489651
vn -0.560555 -0.609554 -0.560555
vn -0.344179 -0.436180 -0.831437
vn -0.278594 -0.684665 -0.673512
vn -0.264874 -0.720924 -0.640399
vn -0.303167 -0.608996 -0.732949
vn 0.000000 -0.435513 -0.900182
vn -0.000000 -0.683863 -0.729611
vn -0.000000 -0.720022 -0.693951
vn 0.000000 -0.607984 -0.793950
vn 0.344179 -0.436180 -0.831437
vn 0.278594 -0.684665 -0.673512
vn 0.264874 -0.720924 -0.640399
vn 0.303166 -0.608996 -0.732949
vn 0.636092 -0.436777 -0.636092
vn 0.514965 -0.685289 -0.514965
vn 0.489651 -0.721446 -0.489651
vn 0.560555 -0.609554 -0.560555
vn 0.831437 -0.436180 -0.344179
vn 0.673512 -0.684665 -0.278594
vn 0.640399 -0.720924 -0.264874
vn 0.732949 -0.608996 -0.303167
vn 0.576230 -0.781801 0.238217
vn 0.623860 -0.781536 0.000000
vn 0.163628 -0.984208 0.067527
vn 0.177291 -0.984159 -0.000000
vn 0.045422 -0.998792 0.018736
vn 0.049207 -0.998789 -0.000000
vn 0.000000 -1.000000 -0.000000
vn 0.440416 -0.782348 0.440416
vn 0.124902 -0.984276 0.124902
vn 0.034662 -0.998798 0.034662
vn 0.238217 -0.781801 0.576230
vn 0.067527 -0.984208 0.163628
vn 0.018736 -0.998792 0.045422
vn -0.000000 -0.781536 0.623860
vn 0.000000 -0.984159 0.177291
vn 0.000000 -0.998789 0.049207
vn -0.238217 -0.781801 0.576230
vn -0.067527 -0.984208 0.163628
vn -0.018736 -0.998792 0.045422
vn -0.440416 -0.782348 0.440416
vn -0.124902 -0.984276 0.124902
vn -0.034662 -0.998798 0.034662
vn -0.576230 -0.781801 0.238217
vn -0.163628 -0.984208 0.067527
vn -0.045422 -0.998792 0.018736
vn -0.623860 -0.781536 -0.000000
vn -0.177291 -0.984159 0.000000
vn -0.049207 -0.998789 0.000000
vn -0.576230 -0.781801 -0.238217
vn -0.163628 -0.984208 -0.067527
vn -0.045422 -0.998792 -0.018736
vn -0.440416 -0.782348 -0.440416
vn -0.124902 -0.984276 -0.124902
vn -0.034662 -0.998798 -0.034662
vn -0.238217 -0.781801 -0.576230
vn -0.067527 -0.984208 -0.163628
vn -0.018736 -0.998792 -0.045422
vn 0.000000 -0.781536 -0.623860
vn -0.000000 -0.984159 -0.177291
vn -0.000000 -0.998789 -0.049207
vn 0.238217 -0.781801 -0.576230
vn 0.067527 -0.984208 -0.163628
vn 0.018736 -0.998792 -0.045422
vn 0.440416 -0.782348 -0.440416
vn 0.124902 -0.984276 -0.124902
vn 0.034662 -0.998798 -0.034662
vn 0.576230 -0.781801 -0.238217
vn 0.163628 -0.984208 -0.067527
vn 0.045422 -0.998792 -0.018736
vn 0.007786 -0.999970 -0.000216
vn 0.007039 -0.812495 0.582926
vn 0.036127 -0.837258 0.545614
vn 0.039138 -0.999233 -0.000989
vn 0.161846 -0.810421 0.563048
vn 0.179512 -0.983746 -0.004369
vn 0.482365 -0.595148 0.642746
vn 0.612300 -0.790556 -0.010460
vn 0.738721 -0.114593 0.664199
vn 0.986152 -0.165707 -0.006670
vn -0.001909 0.162122 0.986769
vn 0.002762 0.017106 0.999850
vn 0.010533 0.073398 0.997247
vn -0.066040 0.130069 0.989303
vn -0.094427 0.016594 0.995394
vn -0.009203 0.871509 0.490293
vn -0.048606 0.840609 0.539458
vn -0.223298 0.802881 0.552739
vn -0.596365 0.559971 0.575135
vn -0.803337 0.068236 0.591603
vn -0.010561 0.999944 0.000103
vn -0.058799 0.998270 0.000710
vn -0.280710 0.959787 0.003269
vn -0.749723 0.661738 0.004267
vn -0.997351 0.072714 0.002058
vn -0.008792 0.871493 -0.490330
vn -0.046494 0.841178 -0.538756
vn -0.217909 0.806807 -0.549161
vn -0.597291 0.560026 -0.574121
vn -0.804000 0.062913 -0.591292
vn -0.001806 0.161691 -0.986840
vn 0.002031 0.014554 -0.999892
vn 0.009215 0.060070 -0.998152
vn -0.059335 0.113866 -0.991723
vn -0.086900 0.012291 -0.996141
vn 0.006418 -0.812379 -0.583095
vn 0.033783 -0.837512 -0.545373
vn 0.157113 -0.811947 -0.562189
vn 0.484406 -0.589365 -0.646528
vn 0.738870 -0.101320 -0.666187
vn 0.725609 0.259351 0.637361
vn 0.946512 0.322650 -0.003357
vn 0.645945 0.461988 0.607719
vn 0.825830 0.563870 -0.007452
vn 0.531615 0.636660 0.558614
vn 0.650011 0.759893 -0.006937
vn 0.424964 0.681718 0.595539
vn 0.532429 0.846458 -0.005245
vn -0.049560 -0.019755 0.998576
vn -0.037817 -0.035625 0.998649
vn -0.037914 -0.036512 0.998614
vn -0.168854 -0.297946 0.939530
vn -0.742342 -0.299166 0.599524
vn -0.619602 -0.529406 0.579502
vn -0.483708 -0.685761 0.543837
vn -0.445293 -0.794355 0.413177
vn -0.926513 -0.376258 0.001995
vn -0.753920 -0.656952 0.004317
vn -0.566224 -0.824244 0.003461
vn -0.481804 -0.876277 0.001850
vn -0.744675 -0.294425 -0.598977
vn -0.621949 -0.528114 -0.578165
vn -0.481171 -0.688340 -0.542828
vn -0.438055 -0.797035 -0.415744
vn -0.044339 -0.017057 -0.998871
vn -0.026177 -0.028167 -0.999260
vn -0.025294 -0.028332 -0.999278
vn -0.157482 -0.289392 -0.944167
vn 0.728244 0.252410 -0.637142
vn 0.647054 0.459725 -0.608255
vn 0.522994 0.640657 -0.562170
vn 0.409978 0.682857 -0.604669
vn -0.230787 0.972982 -0.006523
vn -0.152878 0.687211 0.710190
vn -0.316721 0.637750 0.702113
vn -0.548936 0.835863 -0.001511
vn -0.601067 0.471452 0.645330
vn -0.875671 0.482807 0.009893
vn -0.635890 0.446090 0.629800
vn -0.877554 0.479097 0.019092
vn -0.435745 0.601009 0.670010
vn -0.696189 0.717440 0.024497
vn 0.111113 -0.085069 0.990160
vn 0.223310 0.006540 0.974726
vn 0.190097 0.154964 0.969458
vn 0.005271 0.189482 0.981870
vn -0.011752 0.246688 0.969024
vn 0.343906 -0.722796 0.599412
vn 0.572489 -0.567656 0.591627
vn 0.787436 -0.256459 0.560511
vn 0.647097 -0.306374 0.698141
vn 0.427528 -0.499344 0.753575
vn 0.410926 -0.911668 0.001285
vn 0.671520 -0.740986 -0.000899
vn 0.922026 -0.387060 -0.007253
vn 0.846910 -0.531556 -0.013854
vn 0.535924 -0.844201 -0.010505
vn 0.341188 -0.722823 -0.600931
vn 0.578664 -0.561139 -0.591838
vn 0.784869 -0.251020 -0.566542
vn 0.642681 -0.302257 -0.703990
vn 0.418589 -0.500042 -0.758117
vn 0.115806 -0.079139 -0.990114
vn 0.232811 0.012565 -0.972441
vn 0.206662 0.153601 -0.966280
vn 0.024499 0.161443 -0.986578
vn 0.003382 0.211116 -0.977455
vn -0.134912 0.687491 -0.713551
vn -0.319540 0.633073 -0.705062
vn -0.603902 0.461442 -0.649903
vn -0.631815 0.437169 -0.640072
vn -0.424305 0.612707 -0.666750
vn -0.259858 0.791937 0.552548
vn -0.425800 0.904753 0.010805
vn 0.009537 0.999720 -0.021669
vn 0.022039 0.999756 0.001624
vn 0.410155 0.332916 -0.849082
vn 0.999598 0.025882 0.011557
vn 0.541523 -0.548620 -0.637000
vn 0.709585 -0.704553 0.009672
vn 0.046310 0.455224 0.889172
vn -0.010689 0.988795 0.148899
vn -0.044376 0.682946 -0.729120
vn 0.122825 0.009233 -0.992385
vn 0.481838 -0.180442 0.857481
vn 0.455274 0.736749 0.499927
vn -0.220541 0.907193 -0.358277
vn -0.235919 0.657250 -0.715796
vn 0.728091 -0.685303 -0.015585
vn 0.888739 0.458110 -0.016679
vn -0.260097 0.965582 0.000800
vn -0.371610 0.928378 -0.004418
vn 0.480164 -0.178363 -0.858853
vn 0.488105 0.716799 -0.497949
vn -0.222004 0.905399 0.361892
vn -0.235404 0.663181 0.710476
vn 0.058720 0.437703 -0.897200
vn 0.001326 0.986459 -0.164001
vn -0.044189 0.681675 0.730319
vn 0.138801 -0.034188 0.989730
vn -0.258890 0.797206 -0.545380
vn 0.012269 0.999739 0.019285
vn 0.398631 0.354891 0.845663
vn 0.537564 -0.581400 0.610737
vn 0.000000 1.000000 0.000000
vn 0.762641 0.565035 0.314825
vn 0.824540 0.565803 0.000017
vn 0.847982 -0.397998 0.350034
vn 0.917701 -0.397272 0.000034
vn 0.864141 -0.355260 0.356442
vn 0.935269 -0.353939 0.000113
vn 0.720992 0.625625 0.297933
vn 0.780712 0.624891 0.000075
vn 0.583357 0.565165 0.583338
vn 0.648485 -0.398726 0.648448
vn 0.660872 -0.355894 0.660748
vn 0.551863 0.625289 0.551780
vn 0.314824 0.565051 0.762629
vn 0.350045 -0.397976 0.847988
vn 0.356474 -0.355199 0.864153
vn 0.297982 0.625515 0.721067
vn -0.000017 0.565803 0.824540
vn -0.000034 -0.397272 0.917701
vn -0.000113 -0.353939 0.935269
vn -0.000075 0.624891 0.780712
vn -0.314825 0.565035 0.762641
vn -0.350034 -0.397998 0.847982
vn -0.356442 -0.355260 0.864141
vn -0.297933 0.625625 0.720992
vn -0.583338 0.565165 0.583357
vn -0.648448 -0.398726 0.648485
vn -0.660748 -0.355894 0.660872
vn -0.551780 0.625289 0.551863
vn -0.762629 0.565051 0.314824
vn -0.847988 -0.397976 0.350045
vn -0.864153 -0.355199 0.356474
vn -0.721067 0.625515 0.297982
vn -0.824540 0.565803 -0.000017
vn -0.917701 -0.397272 -0.000034
vn -0.935269 -0.353939 -0.000113
vn -0.780712 0.624891 -0.000075
vn -0.762641 0.565035 -0.314825
vn -0.847982 -0.397998 -0.350034
vn -0.864141 -0.355260 -0.356442
vn -0.720992 0.625625 -0.297933
vn -0.583357 0.565165 -0.583338
vn -0.648485 -0.398726 -0.648448
vn -0.660872 -0.355894 -0.660748
vn -0.551863 0.625289 -0.551780
vn -0.314824 0.565051 -0.762629
vn -0.350045 -0.397976 -0.847988
vn -0.356474 -0.355199 -0.864153
vn -0.297982 0.625515 -0.721067
vn 0.000017 0.565803 -0.824540
vn 0.000034 -0.397272 -0.917701
vn 0.000113 -0.353939 -0.935269
vn 0.000075 0.624891 -0.780712
vn 0.314825 0.565035 -0.762641
vn 0.350034 -0.397998 -0.847982
vn 0.356442 -0.355260 -0.864141
vn 0.297933 0.625625 -0.720992
vn 0.583338 0.565165 -0.583357
vn 0.648448 -0.398726 -0.648485
vn 0.660748 -0.355894 -0.660872
vn 0.551780 0.625289 -0.551863
vn 0.762629 0.565051 -0.314824
vn 0.847988 -0.397976 -0.350045
vn 0.864153 -0.355199 -0.356474
vn 0.721067 0.625515 -0.297982
vn 0.217978 0.971775 0.090217
vn 0.236583 0.971611 0.000000
vn 0.159589 0.984977 0.065962
vn 0.173084 0.984907 -0.000000
vn 0.350498 0.925312 0.144740
vn 0.379703 0.925108 -0.000000
vn 0.485589 0.850653 0.201474
vn 0.526673 0.850068 -0.000000
vn 0.166631 0.971837 0.166631
vn 0.121908 0.985026 0.121908
vn 0.267667 0.925585 0.267668
vn 0.371315 0.851029 0.371315
vn 0.090217 0.971775 0.217978
vn 0.065962 0.984977 0.159589
vn 0.144740 0.925312 0.350498
vn 0.201474 0.850653 0.485589
vn -0.000000 0.971611 0.236583
vn 0.000000 0.984907 0.173084
vn 0.000000 0.925108 0.379703
vn 0.000000 0.850068 0.526673
vn -0.090217 0.971775 0.217978
vn -0.065962 0.984977 0.159589
vn -0.144740 0.925312 0.350498
vn -0.201474 0.850653 0.485589
vn -0.166631 0.971837 0.166631
vn -0.121908 0.985026 0.121908
vn -0.267668 0.925585 0.267667
vn -0.371315 0.851029 0.371315
vn -0.217978 0.971775 0.090217
vn -0.159589 0.984977 0.065962
vn -0.350498 0.925312 0.144740
vn -0.485589 0.850653 0.201474
vn -0.236583 0.971611 -0.000000
vn -0.173084 0.984907 0.000000
vn -0.379703 0.925108 0.000000
vn -0.526673 0.850068 0.000000
vn -0.217978 0.971775 -0.090217
vn -0.159589 0.984977 -0.065962
vn -0.350498 0.925312 -0.144740
vn -0.485589 0.850653 -0.201474
vn -0.166631 0.971837 -0.166631
vn -0.121908 0.985026 -0.121908
vn -0.267667 0.925585 -0.267668
vn -0.371315 0.851029 -0.371315
vn -0.090217 0.971775 -0.217978
vn -0.065962 0.984977 -0.159589
vn -0.144740 0.925312 -0.350498
vn -0.201474 0.850653 -0.485589
vn 0.000000 0.971611 -0.236583
vn -0.000000 0.984907 -0.173084
vn -0.000000 0.925108 -0.379703
vn -0.000000 0.850068 -0.526673
vn 0.090217 0.971775 -0.217978
vn 0.065962 0.984977 -0.159589
vn 0.144740 0.925312 -0.350498
vn 0.201474 0.850653 -0.485589
vn 0.166631 0.971837 -0.166631
vn 0.121908 0.985026 -0.121908
vn 0.267668 0.925585 -0.267667
vn 0.371315 0.851029 -0.371315
vn 0.217978 0.971775 -0.090217
vn 0.159589 0.984977 -0.065962
vn 0.350498 0.925312 -0.144740
vn 0.485589 0.850653 -0.201474
# 530 vertex normals

vt 2.000000 2.000000 0.000000
vt 1.750000 2.000000 0.000000
vt 1.750000 1.975000 0.000000
vt 2.000000 1.975000 0.000000
vt 1.750000 1.950000 0.000000
vt 2.000000 1.950000 0.000000
vt 1.750000 1.925000 0.000000
vt 2.000000 1.925000 0.000000
vt 1.750000 1.900000 0.000000
vt 2.000000 1.900000 0.000000
vt 1.500000 2.000000 0.000000
vt 1.500000 1.975000 0.000000
vt 1.500000 1.950000 0.000000
vt 1.500000 1.925000 0.000000
vt 1.500000 1.900000 0.000000
vt 1.250000 2.000000 0.000000
vt 1.250000 1.975000 0.000000
vt 1.250000 1.950000 0.000000
vt 1.250000 1.925000 0.000000
vt 1.250000 1.900000 0.000000
vt 1.000000 2.000000 0.000000
vt 1.000000 1.975000 0.000000
vt 1.000000 1.950000 0.000000
vt 1.000000 1.925000 0.000000
vt 1.000000 1.900000 0.000000
vt 0.750000 2.000000 0.000000
vt 0.750000 1.975000 0.000000
vt 0.750000 1.950000 0.000000
vt 0.750000 1.925000 0.000000
vt 0.750000 1.900000 0.000000
vt 0.500000 2.000000 0.000000
vt 0.500000 1.975000 0.000000
vt 0.500000 1.950000 0.000000
vt 0.500000 1.925000 0.000000
vt 0.500000 1.900000 0.000000
vt 0.250000 2.000000 0.000000
vt 0.250000 1.975000 0.000000
vt 0.250000 1.950000 0.000000
vt 0.250000 1.925000 0.000000
vt 0.250000 1.900000 0.000000
vt 0.000000 2.000000 0.000000
vt 0.000000 1.975000 0.000000
vt 0.000000 1.950000 0.000000
vt 0.000000 1.925000 0.000000
vt 0.000000 1.900000 0.000000
vt 1.750000 1.675000 0.000000
vt 2.000000 1.675000 0.000000
vt 1.750000 1.450000 0.000000
vt 2.000000 1.450000 0.000000
vt 1.750000 1.225000 0.000000
vt 2.000000 1.225000 0.000000
vt 1.750000 1.000000 0.000000
vt 2.000000 1.000000 0.000000
vt 1.500000 1.675000 0.000000
vt 1.500000 1.450000 0.000000
vt 1.500000 1.225000 0.000000
vt 1.500000 1.000000 0.000000
vt 1.250000 1.675000 0.000000
vt 1.250000 1.450000 0.000000
vt 1.250000 1.225000 0.000000
vt 1.250000 1.000000 0.000000
vt 1.000000 1.675000 0.000000
vt 1.000000 1.450000 0.000000
vt 1.000000 1.225000 0.000000
vt 1.000000 1.000000 0.000000
vt 0.750000 1.675000 0.000000
vt 0.750000 1.450000 0.000000
vt 0.750000 1.225000 0.000000
vt 0.750000 1.000000 0.000000
vt 0.500000 1.675000 0.000000
vt 0.500000 1.450000 0.000000
vt 0.500000 1.225000 0.000000
vt 0.500000 1.000000 0.000000
vt 0.250000 1.675000 0.000000
vt 0.250000 1.450000 0.000000
vt 0.250000 1.225000 0.000000
vt 0.250000 1.000000 0.000000
vt 0.000000 1.675000 0.000000
vt 0.000000 1.450000 0.000000
vt 0.000000 1.225000 0.000000
vt 0.000000 1.000000 0.000000
vt 1.750000 0.850000 0.000000
vt 2.000000 0.850000 0.000000
vt 1.750000 0.700000 0.000000
vt 2.000000 0.700000 0.000000
vt 1.750000 0.550000 0.000000
vt 2.000000 0.550000 0.000000
vt 1.750000 0.400000 0.000000
vt 2.000000 0.400000 0.000000
vt 1.500000 0.850000 0.000000
vt 1.500000 0.700000 0.000000
vt 1.500000 0.550000 0.000000
vt 1.500000 0.400000 0.000000
vt 1.250000 0.850000 0.000000
vt 1.250000 0.700000 0.000000
vt 1.250000 0.550000 0.000000
vt 1.250000 0.400000 0.000000
vt 1.000000 0.850000 0.000000
vt 1.000000 0.700000 0.000000
vt 1.000000 0.550000 0.000000
vt 1.000000 0.400000 0.000000
vt 0.750000 0.850000 0.000000
vt 0.750000 0.700000 0.000000
vt 0.750000 0.550000 0.000000
vt 0.750000 0.400000 0.000000
vt 0.500000 0.850000 0.000000
vt 0.500000 0.700000 0.000000
vt 0.500000 0.550000 0.000000
vt 0.500000 0.400000 0.000000
vt 0.250000 0.850000 0.000000
vt 0.250000 0.700000 0.000000
vt 0.250000 0.550000 0.000000
vt 0.250000 0.400000 0.000000
vt 0.000000 0.850000 0.000000
vt 0.000000 0.700000 0.000000
vt 0.000000 0.550000 0.000000
vt 0.000000 0.400000 0.000000
vt 1.750000 0.300000 0.000000
vt 2.000000 0.300000 0.000000
vt 1.750000 0.200000 0.000000
vt 2.000000 0.200000 0.000000
vt 1.750000 0.100000 0.000000
vt 2.000000 0.100000 0.000000
vt 1.750000 0.000000 0.000000
vt 2.000000 0.000000 0.000000
vt 1.500000 0.300000 0.000000
vt 1.500000 0.200000 0.000000
vt 1.500000 0.100000 0.000000
vt 1.500000 0.000000 0.000000
vt 1.250000 0.300000 0.000000
vt 1.250000 0.200000 0.000000
vt 1.250000 0.100000 0.000000
vt 1.250000 0.000000 0.000000
vt 1.000000 0.300000 0.000000
vt 1.000000 0.200000 0.000000
vt 1.000000 0.100000 0.000000
vt 1.000000 0.000000 0.000000
vt 0.750000 0.300000 0.000000
vt 0.750000 0.200000 0.000000
vt 0.750000 0.100000 0.000000
vt 0.750000 0.000000 0.000000
vt 0.500000 0.300000 0.000000
vt 0.500000 0.200000 0.000000
vt 0.500000 0.100000 0.000000
vt 0.500000 0.000000 0.000000
vt 0.250000 0.300000 0.000000
vt 0.250000 0.200000 0.000000
vt 0.250000 0.100000 0.000000
vt 0.250000 0.000000 0.000000
vt 0.000000 0.300000 0.000000
vt 0.000000 0.200000 0.000000
vt 0.000000 0.100000 0.000000
vt 0.000000 0.000000 0.000000
vt 0.875000 1.000000 0.000000
vt 0.875000 0.875000 0.000000
vt 1.000000 0.875000 0.000000
vt 0.875000 0.750000 0.000000
vt 1.000000 0.750000 0.000000
vt 0.875000 0.625000 0.000000
vt 1.000000 0.625000 0.000000
vt 0.875000 0.500000 0.000000
vt 1.000000 0.500000 0.000000
vt 0.750000 0.875000 0.000000
vt 0.750000 0.750000 0.000000
vt 0.750000 0.625000 0.000000
vt 0.750000 0.500000 0.000000
vt 0.625000 1.000000 0.000000
vt 0.625000 0.875000 0.000000
vt 0.625000 0.750000 0.000000
vt 0.625000 0.625000 0.000000
vt 0.625000 0.500000 0.000000
vt 0.500000 0.875000 0.000000
vt 0.500000 0.750000 0.000000
vt 0.500000 0.625000 0.000000
vt 0.500000 0.500000 0.000000
vt 0.375000 1.000000 0.000000
vt 0.375000 0.875000 0.000000
vt 0.375000 0.750000 0.000000
vt 0.375000 0.625000 0.000000
vt 0.375000 0.500000 0.000000
vt 0.250000 0.875000 0.000000
vt 0.250000 0.750000 0.000000
vt 0.250000 0.625000 0.000000
vt 0.250000 0.500000 0.000000
vt 0.125000 1.000000 0.000000
vt 0.125000 0.875000 0.000000
vt 0.125000 0.750000 0.000000
vt 0.125000 0.625000 0.000000
vt 0.125000 0.500000 0.000000
vt 0.000000 0.875000 0.000000
vt 0.000000 0.750000 0.000000
vt 0.000000 0.625000 0.000000
vt 0.000000 0.500000 0.000000
vt 0.875000 0.375000 0.000000
vt 1.000000 0.375000 0.000000
vt 0.875000 0.250000 0.000000
vt 1.000000 0.250000 0.000000
vt 0.875000 0.125000 0.000000
vt 1.000000 0.125000 0.000000
vt 0.875000 0.000000 0.000000
vt 0.750000 0.375000 0.000000
vt 0.750000 0.250000 0.000000
vt 0.750000 0.125000 0.000000
vt 0.625000 0.375000 0.000000
vt 0.625000 0.250000 0.000000
vt 0.625000 0.125000 0.000000
vt 0.625000 0.000000 0.000000
vt 0.500000 0.375000 0.000000
vt 0.500000 0.250000 0.000000
vt 0.500000 0.125000 0.000000
vt 0.375000 0.375000 0.000000
vt 0.375000 0.250000 0.000000
vt 0.375000 0.125000 0.000000
vt 0.375000 0.000000 0.000000
vt 0.250000 0.375000 0.000000
vt 0.250000 0.250000 0.000000
vt 0.250000 0.125000 0.000000
vt 0.125000 0.375000 0.000000
vt 0.125000 0.250000 0.000000
vt 0.125000 0.125000 0.000000
vt 0.125000 0.000000 0.000000
vt 0.000000 0.375000 0.000000
vt 0.000000 0.250000 0.000000
vt 0.000000 0.125000 0.000000
vt 0.625000 0.225000 0.000000
vt 0.500000 0.225000 0.000000
vt 0.625000 0.450000 0.000000
vt 0.500000 0.450000 0.000000
vt 0.625000 0.675000 0.000000
vt 0.500000 0.675000 0.000000
vt 0.625000 0.900000 0.000000
vt 0.500000 0.900000 0.000000
vt 0.750000 0.225000 0.000000
vt 0.750000 0.450000 0.000000
vt 0.750000 0.675000 0.000000
vt 0.750000 0.900000 0.000000
vt 0.875000 0.225000 0.000000
vt 0.875000 0.450000 0.000000
vt 0.875000 0.675000 0.000000
vt 0.875000 0.900000 0.000000
vt 1.000000 0.225000 0.000000
vt 1.000000 0.450000 0.000000
vt 1.000000 0.675000 0.000000
vt 1.000000 0.900000 0.000000
vt 0.125000 0.225000 0.000000
vt 0.000000 0.225000 0.000000
vt 0.125000 0.450000 0.000000
vt 0.000000 0.450000 0.000000
vt 0.125000 0.675000 0.000000
vt 0.000000 0.675000 0.000000
vt 0.125000 0.900000 0.000000
vt 0.000000 0.900000 0.000000
vt 0.250000 0.225000 0.000000
vt 0.250000 0.450000 0.000000
vt 0.250000 0.675000 0.000000
vt 0.250000 0.900000 0.000000
vt 0.375000 0.225000 0.000000
vt 0.375000 0.450000 0.000000
vt 0.375000 0.675000 0.000000
vt 0.375000 0.900000 0.000000
vt 0.625000 0.925000 0.000000
vt 0.500000 0.925000 0.000000
vt 0.625000 0.950000 0.000000
vt 0.500000 0.950000 0.000000
vt 0.625000 0.975000 0.000000
vt 0.500000 0.975000 0.000000
vt 0.750000 0.925000 0.000000
vt 0.750000 0.950000 0.000000
vt 0.750000 0.975000 0.000000
vt 0.875000 0.925000 0.000000
vt 0.875000 0.950000 0.000000
vt 0.875000 0.975000 0.000000
vt 1.000000 0.925000 0.000000
vt 1.000000 0.950000 0.000000
vt 1.000000 0.975000 0.000000
vt 0.125000 0.925000 0.000000
vt 0.000000 0.925000 0.000000
vt 0.125000 0.950000 0.000000
vt 0.000000 0.950000 0.000000
vt 0.125000 0.975000 0.000000
vt 0.000000 0.975000 0.000000
vt 0.250000 0.925000 0.000000
vt 0.250000 0.950000 0.000000
vt 0.250000 0.975000 0.000000
vt 0.375000 0.925000 0.000000
vt 0.375000 0.950000 0.000000
vt 0.375000 0.975000 0.000000
# 287 texture coords

g Teapot001
s 1
f 1/1/1 2/2/2 3/3/3 
f 3/3/3 4/4/4 1/1/1 
f 4/4/4 3/3/3 5/5/5 
f 5/5/5 6/6/6 4/4/4 
f 6/6/6 5/5/5 7/7/7 
f 7/7/7 8/8/8 6/6/6 
f 8/8/8 7/7/7 9/9/9 
f 9/9/9 10/10/10 8/8/8 
f 2/2/2 11/11/11 12/12/12 
f 12/12/12 3/3/3 2/2/2 
f 3/3/3 12/12/12 13/13/13 
f 13/13/13 5/5/5 3/3/3 
f 5/5/5 13/13/13 14/14/14 
f 14/14/14 7/7/7 5/5/5 
f 7/7/7 14/14/14 15/15/15 
f 15/15/15 9/9/9 7/7/7 
f 11/11/11 16/16/16 17/17/17 
f 17/17/17 12/12/12 11/11/11 
f 12/12/12 17/17/17 18/18/18 
f 18/18/18 13/13/13 12/12/12 
f 13/13/13 18/18/18 19/19/19 
f 19/19/19 14/14/14 13/13/13 
f 14/14/14 19/19/19 20/20/20 
f 20/20/20 15/15/15 14/14/14 
f 16/16/16 21/21/21 22/22/22 
f 22/22/22 17/17/17 16/16/16 
f 17/17/17 22/22/22 23/23/23 
f 23/23/23 18/18/18 17/17/17 
f 18/18/18 23/23/23 24/24/24 
f 24/24/24 19/19/19 18/18/18 
f 19/19/19 24/24/24 25/25/25 
f 25/25/25 20/20/20 19/19/19 
f 21/21/21 26/26/26 27/27/27 
f 27/27/27 22/22/22 21/21/21 
f 22/22/22 27/27/27 28/28/28 
f 28/28/28 23/23/23 22/22/22 
f 23/23/23 28/28/28 29/29/29 
f 29/29/29 24/24/24 23/23/23 
f 24/24/24 29/29/29 30/30/30 
f 30/30/30 25/25/25 24/24/24 
f 26/26/26 31/31/31 32/32/32 
f 32/32/32 27/27/27 26/26/26 
f 27/27/27 32/32/32 33/33/33 
f 33/33/33 28/28/28 27/27/27 
f 28/28/28 33/33/33 34/34/34 
f 34/34/34 29/29/29 28/28/28 
f 29/29/29 34/34/34 35/35/35 
f 35/35/35 30/30/30 29/29/29 
f 31/31/31 36/36/36 37/37/37 
f 37/37/37 32/32/32 31/31/31 
f 32/32/32 37/37/37 38/38/38 
f 38/38/38 33/33/33 32/32/32 
f 33/33/33 38/38/38 39/39/39 
f 39/39/39 34/34/34 33/33/33 
f 34/34/34 39/39/39 40/40/40 
f 40/40/40 35/35/35 34/34/34 
f 36/36/36 41/41/41 42/42/42 
f 42/42/42 37/37/37 36/36/36 
f 37/37/37 42/42/42 43/43/43 
f 43/43/43 38/38/38 37/37/37 
f 38/38/38 43/43/43 44/44/44 
f 44/44/44 39/39/39 38/38/38 
f 39/39/39 44/44/44 45/45/45 
f 45/45/45 40/40/40 39/39/39 
f 41/1/41 46/2/46 47/3/47 
f 47/3/47 42/4/42 41/1/41 
f 42/4/42 47/3/47 48/5/48 
f 48/5/48 43/6/43 42/4/42 
f 43/6/43 48/5/48 49/7/49 
f 49/7/49 44/8/44 43/6/43 
f 44/8/44 49/7/49 50/9/50 
f 50/9/50 45/10/45 44/8/44 
f 46/2/46 51/11/51 52/12/52 
f 52/12/52 47/3/47 46/2/46 
f 47/3/47 52/12/52 53/13/53 
f 53/13/53 48/5/48 47/3/47 
f 48/5/48 53/13/53 54/14/54 
f 54/14/54 49/7/49 48/5/48 
f 49/7/49 54/14/54 55/15/55 
f 55/15/55 50/9/50 49/7/49 
f 51/11/51 56/16/56 57/17/57 
f 57/17/57 52/12/52 51/11/51 
f 52/12/52 57/17/57 58/18/58 
f 58/18/58 53/13/53 52/12/52 
f 53/13/53 58/18/58 59/19/59 
f 59/19/59 54/14/54 53/13/53 
f 54/14/54 59/19/59 60/20/60 
f 60/20/60 55/15/55 54/14/54 
f 56/16/56 61/21/61 62/22/62 
f 62/22/62 57/17/57 56/16/56 
f 57/17/57 62/22/62 63/23/63 
f 63/23/63 58/18/58 57/17/57 
f 58/18/58 63/23/63 64/24/64 
f 64/24/64 59/19/59 58/18/58 
f 59/19/59 64/24/64 65/25/65 
f 65/25/65 60/20/60 59/19/59 
f 61/21/61 66/26/66 67/27/67 
f 67/27/67 62/22/62 61/21/61 
f 62/22/62 67/27/67 68/28/68 
f 68/28/68 63/23/63 62/22/62 
f 63/23/63 68/28/68 69/29/69 
f 69/29/69 64/24/64 63/23/63 
f 64/24/64 69/29/69 70/30/70 
f 70/30/70 65/25/65 64/24/64 
f 66/26/66 71/31/71 72/32/72 
f 72/32/72 67/27/67 66/26/66 
f 67/27/67 72/32/72 73/33/73 
f 73/33/73 68/28/68 67/27/67 
f 68/28/68 73/33/73 74/34/74 
f 74/34/74 69/29/69 68/28/68 
f 69/29/69 74/34/74 75/35/75 
f 75/35/75 70/30/70 69/29/69 
f 71/31/71 76/36/76 77/37/77 
f 77/37/77 72/32/72 71/31/71 
f 72/32/72 77/37/77 78/38/78 
f 78/38/78 73/33/73 72/32/72 
f 73/33/73 78/38/78 79/39/79 
f 79/39/79 74/34/74 73/33/73 
f 74/34/74 79/39/79 80/40/80 
f 80/40/80 75/35/75 74/34/74 
f 76/36/76 1/41/1 4/42/4 
f 4/42/4 77/37/77 76/36/76 
f 77/37/77 4/42/4 6/43/6 
f 6/43/6 78/38/78 77/37/77 
f 78/38/78 6/43/6 8/44/8 
f 8/44/8 79/39/79 78/38/78 
f 79/39/79 8/44/8 10/45/10 
f 10/45/10 80/40/80 79/39/79 
f 10/10/10 9/9/9 81/46/81 
f 81/46/81 82/47/82 10/10/10 
f 82/47/82 81/46/81 83/48/83 
f 83/48/83 84/49/84 82/47/82 
f 84/49/84 83/48/83 85/50/85 
f 85/50/85 86/51/86 84/49/84 
f 86/51/86 85/50/85 87/52/87 
f 87/52/87 88/53/88 86/51/86 
f 9/9/9 15/15/15 89/54/89 
f 89/54/89 81/46/81 9/9/9 
f 81/46/81 89/54/89 90/55/90 
f 90/55/90 83/48/83 81/46/81 
f 83/48/83 90/55/90 91/56/91 
f 91/56/91 85/50/85 83/48/83 
f 85/50/85 91/56/91 92/57/92 
f 92/57/92 87/52/87 85/50/85 
f 15/15/15 20/20/20 93/58/93 
f 93/58/93 89/54/89 15/15/15 
f 89/54/89 93/58/93 94/59/94 
f 94/59/94 90/55/90 89/54/89 
f 90/55/90 94/59/94 95/60/95 
f 95/60/95 91/56/91 90/55/90 
f 91/56/91 95/60/95 96/61/96 
f 96/61/96 92/57/92 91/56/91 
f 20/20/20 25/25/25 97/62/97 
f 97/62/97 93/58/93 20/20/20 
f 93/58/93 97/62/97 98/63/98 
f 98/63/98 94/59/94 93/58/93 
f 94/59/94 98/63/98 99/64/99 
f 99/64/99 95/60/95 94/59/94 
f 95/60/95 99/64/99 100/65/100 
f 100/65/100 96/61/96 95/60/95 
f 25/25/25 30/30/30 101/66/101 
f 101/66/101 97/62/97 25/25/25 
f 97/62/97 101/66/101 102/67/102 
f 102/67/102 98/63/98 97/62/97 
f 98/63/98 102/67/102 103/68/103 
f 103/68/103 99/64/99 98/63/98 
f 99/64/99 103/68/103 104/69/104 
f 104/69/104 100/65/100 99/64/99 
f 30/30/30 35/35/35 105/70/105 
f 105/70/105 101/66/101 30/30/30 
f 101/66/101 105/70/105 106/71/106 
f 106/71/106 102/67/102 101/66/101 
f 102/67/102 106/71/106 107/72/107 
f 107/72/107 103/68/103 102/67/102 
f 103/68/103 107/72/107 108/73/108 
f 108/73/108 104/69/104 103/68/103 
f 35/35/35 40/40/40 109/74/109 
f 109/74/109 105/70/105 35/35/35 
f 105/70/105 109/74/109 110/75/110 
f 110/75/110 106/71/106 105/70/105 
f 106/71/106 110/75/110 111/76/111 
f 111/76/111 107/72/107 106/71/106 
f 107/72/107 111/76/111 112/77/112 
f 112/77/112 108/73/108 107/72/107 
f 40/40/40 45/45/45 113/78/113 
f 113/78/113 109/74/109 40/40/40 
f 109/74/109 113/78/113 114/79/114 
f 114/79/114 110/75/110 109/74/109 
f 110/75/110 114/79/114 115/80/115 
f 115/80/115 111/76/111 110/75/110 
f 111/76/111 115/80/115 116/81/116 
f 116/81/116 112/77/112 111/76/111 
f 45/10/45 50/9/50 117/46/117 
f 117/46/117 113/47/113 45/10/45 
f 113/47/113 117/46/117 118/48/118 
f 118/48/118 114/49/114 113/47/113 
f 114/49/114 118/48/118 119/50/119 
f 119/50/119 115/51/115 114/49/114 
f 115/51/115 119/50/119 120/52/120 
f 120/52/120 116/53/116 115/51/115 
f 50/9/50 55/15/55 121/54/121 
f 121/54/121 117/46/117 50/9/50 
f 117/46/117 121/54/121 122/55/122 
f 122/55/122 118/48/118 117/46/117 
f 118/48/118 122/55/122 123/56/123 
f 123/56/123 119/50/119 118/48/118 
f 119/50/119 123/56/123 124/57/124 
f 124/57/124 120/52/120 119/50/119 
f 55/15/55 60/20/60 125/58/125 
f 125/58/125 121/54/121 55/15/55 
f 121/54/121 125/58/125 126/59/126 
f 126/59/126 122/55/122 121/54/121 
f 122/55/122 126/59/126 127/60/127 
f 127/60/127 123/56/123 122/55/122 
f 123/56/123 127/60/127 128/61/128 
f 128/61/128 124/57/124 123/56/123 
f 60/20/60 65/25/65 129/62/129 
f 129/62/129 125/58/125 60/20/60 
f 125/58/125 129/62/129 130/63/130 
f 130/63/130 126/59/126 125/58/125 
f 126/59/126 130/63/130 131/64/131 
f 131/64/131 127/60/127 126/59/126 
f 127/60/127 131/64/131 132/65/132 
f 132/65/132 128/61/128 127/60/127 
f 65/25/65 70/30/70 133/66/133 
f 133/66/133 129/62/129 65/25/65 
f 129/62/129 133/66/133 134/67/134 
f 134/67/134 130/63/130 129/62/129 
f 130/63/130 134/67/134 135/68/135 
f 135/68/135 131/64/131 130/63/130 
f 131/64/131 135/68/135 136/69/136 
f 136/69/136 132/65/132 131/64/131 
f 70/30/70 75/35/75 137/70/137 
f 137/70/137 133/66/133 70/30/70 
f 133/66/133 137/70/137 138/71/138 
f 138/71/138 134/67/134 133/66/133 
f 134/67/134 138/71/138 139/72/139 
f 139/72/139 135/68/135 134/67/134 
f 135/68/135 139/72/139 140/73/140 
f 140/73/140 136/69/136 135/68/135 
f 75/35/75 80/40/80 141/74/141 
f 141/74/141 137/70/137 75/35/75 
f 137/70/137 141/74/141 142/75/142 
f 142/75/142 138/71/138 137/70/137 
f 138/71/138 142/75/142 143/76/143 
f 143/76/143 139/72/139 138/71/138 
f 139/72/139 143/76/143 144/77/144 
f 144/77/144 140/73/140 139/72/139 
f 80/40/80 10/45/10 82/78/82 
f 82/78/82 141/74/141 80/40/80 
f 141/74/141 82/78/82 84/79/84 
f 84/79/84 142/75/142 141/74/141 
f 142/75/142 84/79/84 86/80/86 
f 86/80/86 143/76/143 142/75/142 
f 143/76/143 86/80/86 88/81/88 
f 88/81/88 144/77/144 143/76/143 
f 88/53/88 87/52/87 145/82/145 
f 145/82/145 146/83/146 88/53/88 
f 146/83/146 145/82/145 147/84/147 
f 147/84/147 148/85/148 146/83/146 
f 148/85/148 147/84/147 149/86/149 
f 149/86/149 150/87/150 148/85/148 
f 150/87/150 149/86/149 151/88/151 
f 151/88/151 152/89/152 150/87/150 
f 87/52/87 92/57/92 153/90/153 
f 153/90/153 145/82/145 87/52/87 
f 145/82/145 153/90/153 154/91/154 
f 154/91/154 147/84/147 145/82/145 
f 147/84/147 154/91/154 155/92/155 
f 155/92/155 149/86/149 147/84/147 
f 149/86/149 155/92/155 156/93/156 
f 156/93/156 151/88/151 149/86/149 
f 92/57/92 96/61/96 157/94/157 
f 157/94/157 153/90/153 92/57/92 
f 153/90/153 157/94/157 158/95/158 
f 158/95/158 154/91/154 153/90/153 
f 154/91/154 158/95/158 159/96/159 
f 159/96/159 155/92/155 154/91/154 
f 155/92/155 159/96/159 160/97/160 
f 160/97/160 156/93/156 155/92/155 
f 96/61/96 100/65/100 161/98/161 
f 161/98/161 157/94/157 96/61/96 
f 157/94/157 161/98/161 162/99/162 
f 162/99/162 158/95/158 157/94/157 
f 158/95/158 162/99/162 163/100/163 
f 163/100/163 159/96/159 158/95/158 
f 159/96/159 163/100/163 164/101/164 
f 164/101/164 160/97/160 159/96/159 
f 100/65/100 104/69/104 165/102/165 
f 165/102/165 161/98/161 100/65/100 
f 161/98/161 165/102/165 166/103/166 
f 166/103/166 162/99/162 161/98/161 
f 162/99/162 166/103/166 167/104/167 
f 167/104/167 163/100/163 162/99/162 
f 163/100/163 167/104/167 168/105/168 
f 168/105/168 164/101/164 163/100/163 
f 104/69/104 108/73/108 169/106/169 
f 169/106/169 165/102/165 104/69/104 
f 165/102/165 169/106/169 170/107/170 
f 170/107/170 166/103/166 165/102/165 
f 166/103/166 170/107/170 171/108/171 
f 171/108/171 167/104/167 166/103/166 
f 167/104/167 171/108/171 172/109/172 
f 172/109/172 168/105/168 167/104/167 
f 108/73/108 112/77/112 173/110/173 
f 173/110/173 169/106/169 108/73/108 
f 169/106/169 173/110/173 174/111/174 
f 174/111/174 170/107/170 169/106/169 
f 170/107/170 174/111/174 175/112/175 
f 175/112/175 171/108/171 170/107/170 
f 171/108/171 175/112/175 176/113/176 
f 176/113/176 172/109/172 171/108/171 
f 112/77/112 116/81/116 177/114/177 
f 177/114/177 173/110/173 112/77/112 
f 173/110/173 177/114/177 178/115/178 
f 178/115/178 174/111/174 173/110/173 
f 174/111/174 178/115/178 179/116/179 
f 179/116/179 175/112/175 174/111/174 
f 175/112/175 179/116/179 180/117/180 
f 180/117/180 176/113/176 175/112/175 
f 116/53/116 120/52/120 181/82/181 
f 181/82/181 177/83/177 116/53/116 
f 177/83/177 181/82/181 182/84/182 
f 182/84/182 178/85/178 177/83/177 
f 178/85/178 182/84/182 183/86/183 
f 183/86/183 179/87/179 178/85/178 
f 179/87/179 183/86/183 184/88/184 
f 184/88/184 180/89/180 179/87/179 
f 120/52/120 124/57/124 185/90/185 
f 185/90/185 181/82/181 120/52/120 
f 181/82/181 185/90/185 186/91/186 
f 186/91/186 182/84/182 181/82/181 
f 182/84/182 186/91/186 187/92/187 
f 187/92/187 183/86/183 182/84/182 
f 183/86/183 187/92/187 188/93/188 
f 188/93/188 184/88/184 183/86/183 
f 124/57/124 128/61/128 189/94/189 
f 189/94/189 185/90/185 124/57/124 
f 185/90/185 189/94/189 190/95/190 
f 190/95/190 186/91/186 185/90/185 
f 186/91/186 190/95/190 191/96/191 
f 191/96/191 187/92/187 186/91/186 
f 187/92/187 191/96/191 192/97/192 
f 192/97/192 188/93/188 187/92/187 
f 128/61/128 132/65/132 193/98/193 
f 193/98/193 189/94/189 128/61/128 
f 189/94/189 193/98/193 194/99/194 
f 194/99/194 190/95/190 189/94/189 
f 190/95/190 194/99/194 195/100/195 
f 195/100/195 191/96/191 190/95/190 
f 191/96/191 195/100/195 196/101/196 
f 196/101/196 192/97/192 191/96/191 
f 132/65/132 136/69/136 197/102/197 
f 197/102/197 193/98/193 132/65/132 
f 193/98/193 197/102/197 198/103/198 
f 198/103/198 194/99/194 193/98/193 
f 194/99/194 198/103/198 199/104/199 
f 199/104/199 195/100/195 194/99/194 
f 195/100/195 199/104/199 200/105/200 
f 200/105/200 196/101/196 195/100/195 
f 136/69/136 140/73/140 201/106/201 
f 201/106/201 197/102/197 136/69/136 
f 197/102/197 201/106/201 202/107/202 
f 202/107/202 198/103/198 197/102/197 
f 198/103/198 202/107/202 203/108/203 
f 203/108/203 199/104/199 198/103/198 
f 199/104/199 203/108/203 204/109/204 
f 204/109/204 200/105/200 199/104/199 
f 140/73/140 144/77/144 205/110/205 
f 205/110/205 201/106/201 140/73/140 
f 201/106/201 205/110/205 206/111/206 
f 206/111/206 202/107/202 201/106/201 
f 202/107/202 206/111/206 207/112/207 
f 207/112/207 203/108/203 202/107/202 
f 203/108/203 207/112/207 208/113/208 
f 208/113/208 204/109/204 203/108/203 
f 144/77/144 88/81/88 146/114/146 
f 146/114/146 205/110/205 144/77/144 
f 205/110/205 146/114/146 148/115/148 
f 148/115/148 206/111/206 205/110/205 
f 206/111/206 148/115/148 150/116/150 
f 150/116/150 207/112/207 206/111/206 
f 207/112/207 150/116/150 152/117/152 
f 152/117/152 208/113/208 207/112/207 
f 152/89/152 151/88/151 209/118/209 
f 209/118/209 210/119/210 152/89/152 
f 210/119/210 209/118/209 211/120/211 
f 211/120/211 212/121/212 210/119/210 
f 212/121/212 211/120/211 213/122/213 
f 213/122/213 214/123/214 212/121/212 
f 214/123/214 213/122/213 215/124/215 
f 215/124/215 215/125/215 214/123/214 
f 151/88/151 156/93/156 216/126/216 
f 216/126/216 209/118/209 151/88/151 
f 209/118/209 216/126/216 217/127/217 
f 217/127/217 211/120/211 209/118/209 
f 211/120/211 217/127/217 218/128/218 
f 218/128/218 213/122/213 211/120/211 
f 213/122/213 218/128/218 215/129/215 
f 215/129/215 215/124/215 213/122/213 
f 156/93/156 160/97/160 219/130/219 
f 219/130/219 216/126/216 156/93/156 
f 216/126/216 219/130/219 220/131/220 
f 220/131/220 217/127/217 216/126/216 
f 217/127/217 220/131/220 221/132/221 
f 221/132/221 218/128/218 217/127/217 
f 218/128/218 221/132/221 215/133/215 
f 215/133/215 215/129/215 218/128/218 
f 160/97/160 164/101/164 222/134/222 
f 222/134/222 219/130/219 160/97/160 
f 219/130/219 222/134/222 223/135/223 
f 223/135/223 220/131/220 219/130/219 
f 220/131/220 223/135/223 224/136/224 
f 224/136/224 221/132/221 220/131/220 
f 221/132/221 224/136/224 215/137/215 
f 215/137/215 215/133/215 221/132/221 
f 164/101/164 168/105/168 225/138/225 
f 225/138/225 222/134/222 164/101/164 
f 222/134/222 225/138/225 226/139/226 
f 226/139/226 223/135/223 222/134/222 
f 223/135/223 226/139/226 227/140/227 
f 227/140/227 224/136/224 223/135/223 
f 224/136/224 227/140/227 215/141/215 
f 215/141/215 215/137/215 224/136/224 
f 168/105/168 172/109/172 228/142/228 
f 228/142/228 225/138/225 168/105/168 
f 225/138/225 228/142/228 229/143/229 
f 229/143/229 226/139/226 225/138/225 
f 226/139/226 229/143/229 230/144/230 
f 230/144/230 227/140/227 226/139/226 
f 227/140/227 230/144/230 215/145/215 
f 215/145/215 215/141/215 227/140/227 
f 172/109/172 176/113/176 231/146/231 
f 231/146/231 228/142/228 172/109/172 
f 228/142/228 231/146/231 232/147/232 
f 232/147/232 229/143/229 228/142/228 
f 229/143/229 232/147/232 233/148/233 
f 233/148/233 230/144/230 229/143/229 
f 230/144/230 233/148/233 215/149/215 
f 215/149/215 215/145/215 230/144/230 
f 176/113/176 180/117/180 234/150/234 
f 234/150/234 231/146/231 176/113/176 
f 231/146/231 234/150/234 235/151/235 
f 235/151/235 232/147/232 231/146/231 
f 232/147/232 235/151/235 236/152/236 
f 236/152/236 233/148/233 232/147/232 
f 233/148/233 236/152/236 215/153/215 
f 215/153/215 215/149/215 233/148/233 
f 180/89/180 184/88/184 237/118/237 
f 237/118/237 234/119/234 180/89/180 
f 234/119/234 237/118/237 238/120/238 
f 238/120/238 235/121/235 234/119/234 
f 235/121/235 238/120/238 239/122/239 
f 239/122/239 236/123/236 235/121/235 
f 236/123/236 239/122/239 215/124/215 
f 215/124/215 215/125/215 236/123/236 
f 184/88/184 188/93/188 240/126/240 
f 240/126/240 237/118/237 184/88/184 
f 237/118/237 240/126/240 241/127/241 
f 241/127/241 238/120/238 237/118/237 
f 238/120/238 241/127/241 242/128/242 
f 242/128/242 239/122/239 238/120/238 
f 239/122/239 242/128/242 215/129/215 
f 215/129/215 215/124/215 239/122/239 
f 188/93/188 192/97/192 243/130/243 
f 243/130/243 240/126/240 188/93/188 
f 240/126/240 243/130/243 244/131/244 
f 244/131/244 241/127/241 240/126/240 
f 241/127/241 244/131/244 245/132/245 
f 245/132/245 242/128/242 241/127/241 
f 242/128/242 245/132/245 215/133/215 
f 215/133/215 215/129/215 242/128/242 
f 192/97/192 196/101/196 246/134/246 
f 246/134/246 243/130/243 192/97/192 
f 243/130/243 246/134/246 247/135/247 
f 247/135/247 244/131/244 243/130/243 
f 244/131/244 247/135/247 248/136/248 
f 248/136/248 245/132/245 244/131/244 
f 245/132/245 248/136/248 215/137/215 
f 215/137/215 215/133/215 245/132/245 
f 196/101/196 200/105/200 249/138/249 
f 249/138/249 246/134/246 196/101/196 
f 246/134/246 249/138/249 250/139/250 
f 250/139/250 247/135/247 246/134/246 
f 247/135/247 250/139/250 251/140/251 
f 251/140/251 248/136/248 247/135/247 
f 248/136/248 251/140/251 215/141/215 
f 215/141/215 215/137/215 248/136/248 
f 200/105/200 204/109/204 252/142/252 
f 252/142/252 249/138/249 200/105/200 
f 249/138/249 252/142/252 253/143/253 
f 253/143/253 250/139/250 249/138/249 
f 250/139/250 253/143/253 254/144/254 
f 254/144/254 251/140/251 250/139/250 
f 251/140/251 254/144/254 215/145/215 
f 215/145/215 215/141/215 251/140/251 
f 204/109/204 208/113/208 255/146/255 
f 255/146/255 252/142/252 204/109/204 
f 252/142/252 255/146/255 256/147/256 
f 256/147/256 253/143/253 252/142/252 
f 253/143/253 256/147/256 257/148/257 
f 257/148/257 254/144/254 253/143/253 
f 254/144/254 257/148/257 215/149/215 
f 215/149/215 215/145/215 254/144/254 
f 208/113/208 152/117/152 210/150/210 
f 210/150/210 255/146/255 208/113/208 
f 255/146/255 210/150/210 212/151/212 
f 212/151/212 256/147/256 255/146/255 
f 256/147/256 212/151/212 214/152/214 
f 214/152/214 257/148/257 256/147/256 
f 257/148/257 214/152/214 215/153/215 
f 215/153/215 215/149/215 257/148/257 
f 258/65/258 259/154/259 260/155/260 
f 260/155/260 261/156/261 258/65/258 
f 261/156/261 260/155/260 262/157/262 
f 262/157/262 263/158/263 261/156/261 
f 263/158/263 262/157/262 264/159/264 
f 264/159/264 265/160/265 263/158/263 
f 265/160/265 264/159/264 266/161/266 
f 266/161/266 267/162/267 265/160/265 
f 259/154/259 268/69/268 269/163/269 
f 269/163/269 260/155/260 259/154/259 
f 260/155/260 269/163/269 270/164/270 
f 270/164/270 262/157/262 260/155/260 
f 262/157/262 270/164/270 271/165/271 
f 271/165/271 264/159/264 262/157/262 
f 264/159/264 271/165/271 272/166/272 
f 272/166/272 266/161/266 264/159/264 
f 268/69/268 273/167/273 274/168/274 
f 274/168/274 269/163/269 268/69/268 
f 269/163/269 274/168/274 275/169/275 
f 275/169/275 270/164/270 269/163/269 
f 270/164/270 275/169/275 276/170/276 
f 276/170/276 271/165/271 270/164/270 
f 271/165/271 276/170/276 277/171/277 
f 277/171/277 272/166/272 271/165/271 
f 273/167/273 278/73/278 279/172/279 
f 279/172/279 274/168/274 273/167/273 
f 274/168/274 279/172/279 280/173/280 
f 280/173/280 275/169/275 274/168/274 
f 275/169/275 280/173/280 281/174/281 
f 281/174/281 276/170/276 275/169/275 
f 276/170/276 281/174/281 282/175/282 
f 282/175/282 277/171/277 276/170/276 
f 278/73/278 283/176/283 284/177/284 
f 284/177/284 279/172/279 278/73/278 
f 279/172/279 284/177/284 285/178/285 
f 285/178/285 280/173/280 279/172/279 
f 280/173/280 285/178/285 286/179/286 
f 286/179/286 281/174/281 280/173/280 
f 281/174/281 286/179/286 287/180/287 
f 287/180/287 282/175/282 281/174/281 
f 283/176/283 288/77/288 289/181/289 
f 289/181/289 284/177/284 283/176/283 
f 284/177/284 289/181/289 290/182/290 
f 290/182/290 285/178/285 284/177/284 
f 285/178/285 290/182/290 291/183/291 
f 291/183/291 286/179/286 285/178/285 
f 286/179/286 291/183/291 292/184/292 
f 292/184/292 287/180/287 286/179/286 
f 288/77/288 293/185/293 294/186/294 
f 294/186/294 289/181/289 288/77/288 
f 289/181/289 294/186/294 295/187/295 
f 295/187/295 290/182/290 289/181/289 
f 290/182/290 295/187/295 296/188/296 
f 296/188/296 291/183/291 290/182/290 
f 291/183/291 296/188/296 297/189/297 
f 297/189/297 292/184/292 291/183/291 
f 293/185/293 258/81/258 261/190/261 
f 261/190/261 294/186/294 293/185/293 
f 294/186/294 261/190/261 263/191/263 
f 263/191/263 295/187/295 294/186/294 
f 295/187/295 263/191/263 265/192/265 
f 265/192/265 296/188/296 295/187/295 
f 296/188/296 265/192/265 267/193/267 
f 267/193/267 297/189/297 296/188/296 
f 267/162/267 266/161/266 298/194/298 
f 298/194/298 299/195/299 267/162/267 
f 299/195/299 298/194/298 300/196/300 
f 300/196/300 301/197/301 299/195/299 
f 301/197/301 300/196/300 302/198/302 
f 302/198/302 303/199/303 301/197/301 
f 303/199/303 302/198/302 304/200/304 
f 304/200/304 116/137/305 303/199/303 
f 266/161/266 272/166/272 305/201/306 
f 305/201/306 298/194/298 266/161/266 
f 298/194/298 305/201/306 306/202/307 
f 306/202/307 300/196/300 298/194/298 
f 300/196/300 306/202/307 307/203/308 
f 307/203/308 302/198/302 300/196/300 
f 302/198/302 307/203/308 308/141/309 
f 308/141/309 304/200/304 302/198/302 
f 272/166/272 277/171/277 309/204/310 
f 309/204/310 305/201/306 272/166/272 
f 305/201/306 309/204/310 310/205/311 
f 310/205/311 306/202/307 305/201/306 
f 306/202/307 310/205/311 311/206/312 
f 311/206/312 307/203/308 306/202/307 
f 307/203/308 311/206/312 312/207/313 
f 312/207/313 308/141/309 307/203/308 
f 277/171/277 282/175/282 313/208/314 
f 313/208/314 309/204/310 277/171/277 
f 309/204/310 313/208/314 314/209/315 
f 314/209/315 310/205/311 309/204/310 
f 310/205/311 314/209/315 315/210/316 
f 315/210/316 311/206/312 310/205/311 
f 311/206/312 315/210/316 316/145/317 
f 316/145/317 312/207/313 311/206/312 
f 282/175/282 287/180/287 317/211/318 
f 317/211/318 313/208/314 282/175/282 
f 313/208/314 317/211/318 318/212/319 
f 318/212/319 314/209/315 313/208/314 
f 314/209/315 318/212/319 319/213/320 
f 319/213/320 315/210/316 314/209/315 
f 315/210/316 319/213/320 320/214/321 
f 320/214/321 316/145/317 315/210/316 
f 287/180/287 292/184/292 321/215/322 
f 321/215/322 317/211/318 287/180/287 
f 317/211/318 321/215/322 322/216/323 
f 322/216/323 318/212/319 317/211/318 
f 318/212/319 322/216/323 323/217/324 
f 323/217/324 319/213/320 318/212/319 
f 319/213/320 323/217/324 324/149/325 
f 324/149/325 320/214/321 319/213/320 
f 292/184/292 297/189/297 325/218/326 
f 325/218/326 321/215/322 292/184/292 
f 321/215/322 325/218/326 326/219/327 
f 326/219/327 322/216/323 321/215/322 
f 322/216/323 326/219/327 327/220/328 
f 327/220/328 323/217/324 322/216/323 
f 323/217/324 327/220/328 328/221/329 
f 328/221/329 324/149/325 323/217/324 
f 297/189/297 267/193/267 299/222/299 
f 299/222/299 325/218/326 297/189/297 
f 325/218/326 299/222/299 301/223/301 
f 301/223/301 326/219/327 325/218/326 
f 326/219/327 301/223/301 303/224/303 
f 303/224/303 327/220/328 326/219/327 
f 327/220/328 303/224/303 116/153/305 
f 116/153/305 328/221/329 327/220/328 
f 329/145/330 330/207/331 331/225/332 
f 331/225/332 332/226/333 329/145/330 
f 332/226/333 331/225/332 333/227/334 
f 333/227/334 334/228/335 332/226/333 
f 334/228/335 333/227/334 335/229/336 
f 335/229/336 336/230/337 334/228/335 
f 336/230/337 335/229/336 337/231/338 
f 337/231/338 338/232/339 336/230/337 
f 330/207/331 339/141/340 340/233/341 
f 340/233/341 331/225/332 330/207/331 
f 331/225/332 340/233/341 341/234/342 
f 341/234/342 333/227/334 331/225/332 
f 333/227/334 341/234/342 342/235/343 
f 342/235/343 335/229/336 333/227/334 
f 335/229/336 342/235/343 343/236/344 
f 343/236/344 337/231/338 335/229/336 
f 339/141/340 344/200/345 345/237/346 
f 345/237/346 340/233/341 339/141/340 
f 340/233/341 345/237/346 346/238/347 
f 346/238/347 341/234/342 340/233/341 
f 341/234/342 346/238/347 347/239/348 
f 347/239/348 342/235/343 341/234/342 
f 342/235/343 347/239/348 348/240/349 
f 348/240/349 343/236/344 342/235/343 
f 344/200/345 349/137/350 350/241/351 
f 350/241/351 345/237/346 344/200/345 
f 345/237/346 350/241/351 351/242/352 
f 351/242/352 346/238/347 345/237/346 
f 346/238/347 351/242/352 352/243/353 
f 352/243/353 347/239/348 346/238/347 
f 347/239/348 352/243/353 353/244/354 
f 353/244/354 348/240/349 347/239/348 
f 349/153/350 354/221/355 355/245/356 
f 355/245/356 350/246/351 349/153/350 
f 350/246/351 355/245/356 356/247/357 
f 356/247/357 351/248/352 350/246/351 
f 351/248/352 356/247/357 357/249/358 
f 357/249/358 352/250/353 351/248/352 
f 352/250/353 357/249/358 358/251/359 
f 358/251/359 353/252/354 352/250/353 
f 354/221/355 359/149/360 360/253/361 
f 360/253/361 355/245/356 354/221/355 
f 355/245/356 360/253/361 361/254/362 
f 361/254/362 356/247/357 355/245/356 
f 356/247/357 361/254/362 362/255/363 
f 362/255/363 357/249/358 356/247/357 
f 357/249/358 362/255/363 363/256/364 
f 363/256/364 358/251/359 357/249/358 
f 359/149/360 364/214/365 365/257/366 
f 365/257/366 360/253/361 359/149/360 
f 360/253/361 365/257/366 366/258/367 
f 366/258/367 361/254/362 360/253/361 
f 361/254/362 366/258/367 367/259/368 
f 367/259/368 362/255/363 361/254/362 
f 362/255/363 367/259/368 368/260/369 
f 368/260/369 363/256/364 362/255/363 
f 364/214/365 329/145/330 332/226/333 
f 332/226/333 365/257/366 364/214/365 
f 365/257/366 332/226/333 334/228/335 
f 334/228/335 366/258/367 365/257/366 
f 366/258/367 334/228/335 336/230/337 
f 336/230/337 367/259/368 366/258/367 
f 367/259/368 336/230/337 338/232/339 
f 338/232/339 368/260/369 367/259/368 
f 338/232/339 337/231/338 369/261/370 
f 369/261/370 370/262/371 338/232/339 
f 370/262/371 369/261/370 371/263/372 
f 371/263/372 372/264/373 370/262/371 
f 372/264/373 371/263/372 373/265/374 
f 373/265/374 374/266/375 372/264/373 
f 374/266/375 373/265/374 375/167/376 
f 375/167/376 376/73/377 374/266/375 
f 337/231/338 343/236/344 377/267/378 
f 377/267/378 369/261/370 337/231/338 
f 369/261/370 377/267/378 378/268/379 
f 378/268/379 371/263/372 369/261/370 
f 371/263/372 378/268/379 379/269/380 
f 379/269/380 373/265/374 371/263/372 
f 373/265/374 379/269/380 380/69/381 
f 380/69/381 375/167/376 373/265/374 
f 343/236/344 348/240/349 381/270/382 
f 381/270/382 377/267/378 343/236/344 
f 377/267/378 381/270/382 382/271/383 
f 382/271/383 378/268/379 377/267/378 
f 378/268/379 382/271/383 383/272/384 
f 383/272/384 379/269/380 378/268/379 
f 379/269/380 383/272/384 384/154/385 
f 384/154/385 380/69/381 379/269/380 
f 348/240/349 353/244/354 385/273/386 
f 385/273/386 381/270/382 348/240/349 
f 381/270/382 385/273/386 386/274/387 
f 386/274/387 382/271/383 381/270/382 
f 382/271/383 386/274/387 387/275/388 
f 387/275/388 383/272/384 382/271/383 
f 383/272/384 387/275/388 388/65/389 
f 388/65/389 384/154/385 383/272/384 
f 353/252/354 358/251/359 389/276/390 
f 389/276/390 385/277/386 353/252/354 
f 385/277/386 389/276/390 390/278/391 
f 390/278/391 386/279/387 385/277/386 
f 386/279/387 390/278/391 391/280/392 
f 391/280/392 387/281/388 386/279/387 
f 387/281/388 391/280/392 392/185/393 
f 392/185/393 388/81/389 387/281/388 
f 358/251/359 363/256/364 393/282/394 
f 393/282/394 389/276/390 358/251/359 
f 389/276/390 393/282/394 394/283/395 
f 394/283/395 390/278/391 389/276/390 
f 390/278/391 394/283/395 395/284/396 
f 395/284/396 391/280/392 390/278/391 
f 391/280/392 395/284/396 396/77/397 
f 396/77/397 392/185/393 391/280/392 
f 363/256/364 368/260/369 397/285/398 
f 397/285/398 393/282/394 363/256/364 
f 393/282/394 397/285/398 398/286/399 
f 398/286/399 394/283/395 393/282/394 
f 394/283/395 398/286/399 399/287/400 
f 399/287/400 395/284/396 394/283/395 
f 395/284/396 399/287/400 400/176/401 
f 400/176/401 396/77/397 395/284/396 
f 368/260/369 338/232/339 370/262/371 
f 370/262/371 397/285/398 368/260/369 
f 397/285/398 370/262/371 372/264/373 
f 372/264/373 398/286/399 397/285/398 
f 398/286/399 372/264/373 374/266/375 
f 374/266/375 399/287/400 398/286/399 
f 399/287/400 374/266/375 376/73/377 
f 376/73/377 400/176/401 399/287/400 
f 401/65/402 401/154/402 402/157/403 
f 402/157/403 403/158/404 401/65/402 
f 403/158/404 402/157/403 404/161/405 
f 404/161/405 405/162/406 403/158/404 
f 405/162/406 404/161/405 406/196/407 
f 406/196/407 407/197/408 405/162/406 
f 407/197/408 406/196/407 408/200/409 
f 408/200/409 409/137/410 407/197/408 
f 401/154/402 401/69/402 410/164/411 
f 410/164/411 402/157/403 401/154/402 
f 402/157/403 410/164/411 411/166/412 
f 411/166/412 404/161/405 402/157/403 
f 404/161/405 411/166/412 412/202/413 
f 412/202/413 406/196/407 404/161/405 
f 406/196/407 412/202/413 413/141/414 
f 413/141/414 408/200/409 406/196/407 
f 401/69/402 401/167/402 414/169/415 
f 414/169/415 410/164/411 401/69/402 
f 410/164/411 414/169/415 415/171/416 
f 415/171/416 411/166/412 410/164/411 
f 411/166/412 415/171/416 416/205/417 
f 416/205/417 412/202/413 411/166/412 
f 412/202/413 416/205/417 417/207/418 
f 417/207/418 413/141/414 412/202/413 
f 401/167/402 401/73/402 418/173/419 
f 418/173/419 414/169/415 401/167/402 
f 414/169/415 418/173/419 419/175/420 
f 419/175/420 415/171/416 414/169/415 
f 415/171/416 419/175/420 420/209/421 
f 420/209/421 416/205/417 415/171/416 
f 416/205/417 420/209/421 421/145/422 
f 421/145/422 417/207/418 416/205/417 
f 401/73/402 401/176/402 422/178/423 
f 422/178/423 418/173/419 401/73/402 
f 418/173/419 422/178/423 423/180/424 
f 423/180/424 419/175/420 418/173/419 
f 419/175/420 423/180/424 424/212/425 
f 424/212/425 420/209/421 419/175/420 
f 420/209/421 424/212/425 425/214/426 
f 425/214/426 421/145/422 420/209/421 
f 401/176/402 401/77/402 426/182/427 
f 426/182/427 422/178/423 401/176/402 
f 422/178/423 426/182/427 427/184/428 
f 427/184/428 423/180/424 422/178/423 
f 423/180/424 427/184/428 428/216/429 
f 428/216/429 424/212/425 423/180/424 
f 424/212/425 428/216/429 429/149/430 
f 429/149/430 425/214/426 424/212/425 
f 401/77/402 401/185/402 430/187/431 
f 430/187/431 426/182/427 401/77/402 
f 426/182/427 430/187/431 431/189/432 
f 431/189/432 427/184/428 426/182/427 
f 427/184/428 431/189/432 432/219/433 
f 432/219/433 428/216/429 427/184/428 
f 428/216/429 432/219/433 433/221/434 
f 433/221/434 429/149/430 428/216/429 
f 401/185/402 401/81/402 434/191/435 
f 434/191/435 430/187/431 401/185/402 
f 430/187/431 434/191/435 435/193/436 
f 435/193/436 431/189/432 430/187/431 
f 431/189/432 435/193/436 436/223/437 
f 436/223/437 432/219/433 431/189/432 
f 432/219/433 436/223/437 437/153/438 
f 437/153/438 433/221/434 432/219/433 
f 401/65/402 401/154/402 438/157/439 
f 438/157/439 434/158/435 401/65/402 
f 434/158/435 438/157/439 439/161/440 
f 439/161/440 435/162/436 434/158/435 
f 435/162/436 439/161/440 440/196/441 
f 440/196/441 436/197/437 435/162/436 
f 436/197/437 440/196/441 441/200/442 
f 441/200/442 437/137/438 436/197/437 
f 401/154/402 401/69/402 442/164/443 
f 442/164/443 438/157/439 401/154/402 
f 438/157/439 442/164/443 443/166/444 
f 443/166/444 439/161/440 438/157/439 
f 439/161/440 443/166/444 444/202/445 
f 444/202/445 440/196/441 439/161/440 
f 440/196/441 444/202/445 445/141/446 
f 445/141/446 441/200/442 440/196/441 
f 401/69/402 401/167/402 446/169/447 
f 446/169/447 442/164/443 401/69/402 
f 442/164/443 446/169/447 447/171/448 
f 447/171/448 443/166/444 442/164/443 
f 443/166/444 447/171/448 448/205/449 
f 448/205/449 444/202/445 443/166/444 
f 444/202/445 448/205/449 449/207/450 
f 449/207/450 445/141/446 444/202/445 
f 401/167/402 401/73/402 450/173/451 
f 450/173/451 446/169/447 401/167/402 
f 446/169/447 450/173/451 451/175/452 
f 451/175/452 447/171/448 446/169/447 
f 447/171/448 451/175/452 452/209/453 
f 452/209/453 448/205/449 447/171/448 
f 448/205/449 452/209/453 453/145/454 
f 453/145/454 449/207/450 448/205/449 
f 401/73/402 401/176/402 454/178/455 
f 454/178/455 450/173/451 401/73/402 
f 450/173/451 454/178/455 455/180/456 
f 455/180/456 451/175/452 450/173/451 
f 451/175/452 455/180/456 456/212/457 
f 456/212/457 452/209/453 451/175/452 
f 452/209/453 456/212/457 457/214/458 
f 457/214/458 453/145/454 452/209/453 
f 401/176/402 401/77/402 458/182/459 
f 458/182/459 454/178/455 401/176/402 
f 454/178/455 458/182/459 459/184/460 
f 459/184/460 455/180/456 454/178/455 
f 455/180/456 459/184/460 460/216/461 
f 460/216/461 456/212/457 455/180/456 
f 456/212/457 460/216/461 461/149/462 
f 461/149/462 457/214/458 456/212/457 
f 401/77/402 401/185/402 462/187/463 
f 462/187/463 458/182/459 401/77/402 
f 458/182/459 462/187/463 463/189/464 
f 463/189/464 459/184/460 458/182/459 
f 459/184/460 463/189/464 464/219/465 
f 464/219/465 460/216/461 459/184/460 
f 460/216/461 464/219/465 465/221/466 
f 465/221/466 461/149/462 460/216/461 
f 401/185/402 401/81/402 403/191/404 
f 403/191/404 462/187/463 401/185/402 
f 462/187/463 403/191/404 405/193/406 
f 405/193/406 463/189/464 462/187/463 
f 463/189/464 405/193/406 407/223/408 
f 407/223/408 464/219/465 463/189/464 
f 464/219/465 407/223/408 409/153/410 
f 409/153/410 465/221/466 464/219/465 
f 409/65/410 408/154/409 466/157/467 
f 466/157/467 467/158/468 409/65/410 
f 467/158/468 466/157/467 468/161/469 
f 468/161/469 469/162/470 467/158/468 
f 469/162/470 468/161/469 470/196/471 
f 470/196/471 471/197/472 469/162/470 
f 471/197/472 470/196/471 472/200/473 
f 472/200/473 473/137/474 471/197/472 
f 408/154/409 413/69/414 474/164/475 
f 474/164/475 466/157/467 408/154/409 
f 466/157/467 474/164/475 475/166/476 
f 475/166/476 468/161/469 466/157/467 
f 468/161/469 475/166/476 476/202/477 
f 476/202/477 470/196/471 468/161/469 
f 470/196/471 476/202/477 477/141/478 
f 477/141/478 472/200/473 470/196/471 
f 413/69/414 417/167/418 478/169/479 
f 478/169/479 474/164/475 413/69/414 
f 474/164/475 478/169/479 479/171/480 
f 479/171/480 475/166/476 474/164/475 
f 475/166/476 479/171/480 480/205/481 
f 480/205/481 476/202/477 475/166/476 
f 476/202/477 480/205/481 481/207/482 
f 481/207/482 477/141/478 476/202/477 
f 417/167/418 421/73/422 482/173/483 
f 482/173/483 478/169/479 417/167/418 
f 478/169/479 482/173/483 483/175/484 
f 483/175/484 479/171/480 478/169/479 
f 479/171/480 483/175/484 484/209/485 
f 484/209/485 480/205/481 479/171/480 
f 480/205/481 484/209/485 485/145/486 
f 485/145/486 481/207/482 480/205/481 
f 421/73/422 425/176/426 486/178/487 
f 486/178/487 482/173/483 421/73/422 
f 482/173/483 486/178/487 487/180/488 
f 487/180/488 483/175/484 482/173/483 
f 483/175/484 487/180/488 488/212/489 
f 488/212/489 484/209/485 483/175/484 
f 484/209/485 488/212/489 489/214/490 
f 489/214/490 485/145/486 484/209/485 
f 425/176/426 429/77/430 490/182/491 
f 490/182/491 486/178/487 425/176/426 
f 486/178/487 490/182/491 491/184/492 
f 491/184/492 487/180/488 486/178/487 
f 487/180/488 491/184/492 492/216/493 
f 492/216/493 488/212/489 487/180/488 
f 488/212/489 492/216/493 493/149/494 
f 493/149/494 489/214/490 488/212/489 
f 429/77/430 433/185/434 494/187/495 
f 494/187/495 490/182/491 429/77/430 
f 490/182/491 494/187/495 495/189/496 
f 495/189/496 491/184/492 490/182/491 
f 491/184/492 495/189/496 496/219/497 
f 496/219/497 492/216/493 491/184/492 
f 492/216/493 496/219/497 497/221/498 
f 497/221/498 493/149/494 492/216/493 
f 433/185/434 437/81/438 498/191/499 
f 498/191/499 494/187/495 433/185/434 
f 494/187/495 498/191/499 499/193/500 
f 499/193/500 495/189/496 494/187/495 
f 495/189/496 499/193/500 500/223/501 
f 500/223/501 496/219/497 495/189/496 
f 496/219/497 500/223/501 501/153/502 
f 501/153/502 497/221/498 496/219/497 
f 437/65/438 441/154/442 502/157/503 
f 502/157/503 498/158/499 437/65/438 
f 498/158/499 502/157/503 503/161/504 
f 503/161/504 499/162/500 498/158/499 
f 499/162/500 503/161/504 504/196/505 
f 504/196/505 500/197/501 499/162/500 
f 500/197/501 504/196/505 505/200/506 
f 505/200/506 501/137/502 500/197/501 
f 441/154/442 445/69/446 506/164/507 
f 506/164/507 502/157/503 441/154/442 
f 502/157/503 506/164/507 507/166/508 
f 507/166/508 503/161/504 502/157/503 
f 503/161/504 507/166/508 508/202/509 
f 508/202/509 504/196/505 503/161/504 
f 504/196/505 508/202/509 509/141/510 
f 509/141/510 505/200/506 504/196/505 
f 445/69/446 449/167/450 510/169/511 
f 510/169/511 506/164/507 445/69/446 
f 506/164/507 510/169/511 511/171/512 
f 511/171/512 507/166/508 506/164/507 
f 507/166/508 511/171/512 512/205/513 
f 512/205/513 508/202/509 507/166/508 
f 508/202/509 512/205/513 513/207/514 
f 513/207/514 509/141/510 508/202/509 
f 449/167/450 453/73/454 514/173/515 
f 514/173/515 510/169/511 449/167/450 
f 510/169/511 514/173/515 515/175/516 
f 515/175/516 511/171/512 510/169/511 
f 511/171/512 515/175/516 516/209/517 
f 516/209/517 512/205/513 511/171/512 
f 512/205/513 516/209/517 517/145/518 
f 517/145/518 513/207/514 512/205/513 
f 453/73/454 457/176/458 518/178/519 
f 518/178/519 514/173/515 453/73/454 
f 514/173/515 518/178/519 519/180/520 
f 519/180/520 515/175/516 514/173/515 
f 515/175/516 519/180/520 520/212/521 
f 520/212/521 516/209/517 515/175/516 
f 516/209/517 520/212/521 521/214/522 
f 521/214/522 517/145/518 516/209/517 
f 457/176/458 461/77/462 522/182/523 
f 522/182/523 518/178/519 457/176/458 
f 518/178/519 522/182/523 523/184/524 
f 523/184/524 519/180/520 518/178/519 
f 519/180/520 523/184/524 524/216/525 
f 524/216/525 520/212/521 519/180/520 
f 520/212/521 524/216/525 525/149/526 
f 525/149/526 521/214/522 520/212/521 
f 461/77/462 465/185/466 526/187/527 
f 526/187/527 522/182/523 461/77/462 
f 522/182/523 526/187/527 527/189/528 
f 527/189/528 523/184/524 522/182/523 
f 523/184/524 527/189/528 528/219/529 
f 528/219/529 524/216/525 523/184/524 
f 524/216/525 528/219/529 529/221/530 
f 529/221/530 525/149/526 524/216/525 
f 465/185/466 409/81/410 467/191/468 
f 467/191/468 526/187/527 465/185/466 
f 526/187/527 467/191/468 469/193/470 
f 469/193/470 527/189/528 526/187/527 
f 527/189/528 469/193/470 471/223/472 
f 471/223/472 528/219/529 527/189/528 
f 528/219/529 471/223/472 473/153/474 
f 473/153/474 529/221/530 528/219/529 
# 1024 faces

